nc	ps	unique	redundant	AGI	symbol	descr	cor.252827_at	cor.264052_at	cor.253534_at	cor.263714_at	cor.264873_at	cor.260387_at
6	252827_at	TRUE	FALSE	AT4G39950	CYP79B2	cytochrome P450, family 79, subfamily B, polypeptide 2	1	0.78233451000652	0.803785604936409	0.607135381046791	0.619851577714062	0.731507117451092
6	252870_at	TRUE	FALSE	AT4G39940	APK2|AKN2	APS-kinase 2	0.732683872962287	0.712399858267672	0.769358460946564	0.846422627773908	0.780027399278658	0.743632040891672
6	253534_at	TRUE	FALSE	AT4G31500	RNT1|RED1|SUR2|ATR4|CYP83B1	cytochrome P450, family 83, subfamily B, polypeptide 1	0.803785604936409	0.728273481453322	1	0.720694089979914	0.693497397755207	0.788271972303261
6	255773_at	TRUE	FALSE	AT1G18590	ATSOT17|ATST5C|SOT17	sulfotransferase 17	0.61221535221297	0.664728988742586	0.699842480048989	0.837095024036707	0.757843682252595	0.691670947186457
6	260387_at	TRUE	FALSE	AT1G74100	ATSOT16|ATST5A|CORI-7|SOT16	sulfotransferase 16	0.731507117451092	0.620813277647193	0.788271972303261	0.740099541301821	0.739716955407991	1
6	266326_at	TRUE	FALSE	AT2G46650	ATCB5-C|B51|CB5-C	cytochrome B5 isoform C	0.622627854045737	0.616683957477853	0.692361434835335	0.85043160049462	0.735902810201828	0.681412201907126
5	263714_at	TRUE	FALSE	AT2G20610	RTY1|RTY|HLS3|ALF1|SUR1	Tyrosine transaminase family protein	0.607135381046791	0.570168616923141	0.720694089979914	1	0.794252865717863	0.740099541301821
5	264873_at	TRUE	FALSE	AT1G24100	UGT74B1	UDP-glucosyl transferase 74B1	0.619851577714062	0.570614532247283	0.693497397755207	0.794252865717863	1	0.739716955407991
4	249025_at	TRUE	FALSE	AT5G44720	AT5G44720	Molybdenum cofactor sulfurase family protein	0.521671806395322	0.558788676442439	0.607209645116961	0.775427240190624	0.73465970292755	0.636831591645405
4	253606_at	TRUE	FALSE	AT4G30530	AT4G30530	Class I glutamine amidotransferase-like superfamily protein	0.59523279045254	0.475258428534146	0.695919802050129	0.746168644939256	0.729042230030684	0.697251221595155
4	256835_at	TRUE	FALSE	AT3G22890	APS1	ATP sulfurylase 1	0.545443869005863	0.496324490145285	0.637888455807365	0.755300216653381	0.716589530914768	0.651658294253075
4	264052_at	TRUE	FALSE	AT2G22330	CYP79B3	cytochrome P450, family 79, subfamily B, polypeptide 3	0.78233451000652	1	0.728273481453322	0.570168616923141	0.570614532247283	0.620813277647193
4	267153_at	TRUE	FALSE	AT2G30860	GSTF9|ATGSTF9|ATGSTF7|GLUTTR	glutathione S-transferase PHI 9	0.592120016867183	0.54775552725052	0.71780292440676	0.742958107869493	0.6627759554041	0.717240551329185
3	247313_at	TRUE	FALSE	AT5G63980	ALX8|HOS2|ATSAL1|SAL1|RON1|FRY1	Inositol monophosphatase family protein	0.486356544496873	0.426198629549561	0.542618099066788	0.761534868346768	0.612985196007789	0.660334644835794
3	250014_at	TRUE	FALSE	AT5G17990	pat1|TRP1	tryptophan biosynthesis 1	0.567670126509113	0.448006111080705	0.67301256513164	0.657441352521425	0.602158968520331	0.599652971869315
3	250846_at	TRUE	FALSE	AT5G04590	SIR	sulfite reductase	0.458273210494708	0.430974950317977	0.500508342452262	0.725404642729885	0.630668262470255	0.618335147078272
3	251847_at	TRUE	FALSE	AT3G54640	TRP3|TSA1	tryptophan synthase alpha chain	0.648208359509598	0.403842399205907	0.661658324321464	0.583397557726546	0.582848387863883	0.679835979756304
3	258000_at	TRUE	FALSE	AT3G28940	AT3G28940	AIG2-like (avirulence induced gene) family protein	0.518391298669349	0.45125385080618	0.647870913869477	0.627675302872368	0.512034929832848	0.699000028789047
3	262762_at	TRUE	FALSE	AT1G10700	PRS3	phosphoribosyl pyrophosphate (PRPP) synthase 3	0.605923547319432	0.47308587015225	0.600727799124794	0.511833305846786	0.483328813134191	0.630574796212481
3	262899_at	TRUE	FALSE	AT1G59870	ABCG36|ATABCG36|PEN3|PDR8|ATPDR8	ABC-2 and Plant PDR ABC-type transporter family protein	0.605123211437419	0.52506682714369	0.777535588418028	0.572028089346468	0.52913139919477	0.659163058176917
3	267112_at	TRUE	FALSE	AT2G14750	APK|APK1|ATAKN1|AKN1	APS kinase	0.566990844412648	0.541147318950659	0.611537827280285	0.728542601341869	0.745362572250938	0.582982871127391
3	267154_at	TRUE	FALSE	AT2G30870	GSTF10|ATGSTF10|ERD13|ATGSTF4	glutathione S-transferase PHI 10	0.621861174897294	0.514103831317626	0.71096945466841	0.552626544730428	0.575334232445539	0.720047367358047
2	246143_at	TRUE	FALSE	AT5G19980	GONST4	golgi nucleotide sugar transporter 4	0.465727748202627	0.41614156128813	0.65128213815684	0.503752443582206	0.433025781932509	0.658444470559514
2	250738_at	TRUE	FALSE	AT5G05730	TRP5|JDL1|WEI2|ASA1|AMT1	anthranilate synthase alpha subunit 1	0.619569352560999	0.426020263369044	0.649141731102571	0.504858371128374	0.553625514005283	0.520630627558663
2	252486_at	TRUE	FALSE	AT3G46510	ATPUB13|PUB13	plant U-box 13	0.453270908162877	0.461739381974122	0.634212021074013	0.51092546873796	0.418740554043412	0.602937257286047
2	254742_at	TRUE	FALSE	AT4G13430	IIL1|ATLEUC1	isopropyl malate isomerase large subunit 1	0.401101439404267	0.393841139497	0.483280902140156	0.69839195089677	0.623471364297476	0.587933725550384
2	255797_at	TRUE	FALSE	AT2G33630	AT2G33630	NAD(P)-binding Rossmann-fold superfamily protein	0.537289529130917	0.504661805850319	0.64835310207371	0.420235445345203	0.456306818780241	0.607788139731857
2	256255_at	TRUE	FALSE	AT3G11280	AT3G11280	Duplicated homeodomain-like superfamily protein	0.502000108130218	0.658855976381231	0.623413528612142	0.525231530102265	0.486942328414823	0.52678583385096
2	257228_at	TRUE	FALSE	AT3G27890	NQR	NADPH:quinone oxidoreductase	0.584675886396052	0.538613952633058	0.69216773908956	0.566947787298691	0.525971117978972	0.702159244387708
2	258791_at	TRUE	FALSE	AT3G04720	HEL|PR-4|PR4	pathogenesis-related 4	0.603679106952382	0.516622960548414	0.604081904337977	0.4397124505189	0.402683682121838	0.528158061613471
2	258811_at	TRUE	FALSE	AT3G03990	AT3G03990	alpha/beta-Hydrolases superfamily protein	0.442927771414331	0.449234662551692	0.606041388235639	0.436562200208198	0.426184350743932	0.608870489227565
2	259588_at	TRUE	FALSE	AT1G27930	AT1G27930	Protein of unknown function (DUF579)	0.447277778378684	0.374309897773594	0.65306890947695	0.542598966417936	0.462984464285811	0.65854057886812
2	260385_at	TRUE	FALSE	AT1G74090	ATST5B|SOT18|ATSOT18	desulfo-glucosinolate sulfotransferase 18	0.40700747586197	0.524829139496532	0.514260452679558	0.73725166330545	0.684485714961777	0.556032012874485
2	261970_at	TRUE	FALSE	AT1G65960	GAD2	glutamate decarboxylase 2	0.382002492526952	0.459996960228886	0.623058372879528	0.607502970476905	0.543094844350915	0.566663343374081
2	261979_at	TRUE	FALSE	AT1G37130	B29|ATNR2|NIA2|NIA2-1|NR2|CHL3|NR	nitrate reductase 2	0.578591140083052	0.534183618206638	0.641365723785102	0.590985387123442	0.522888832368829	0.641622093889658
2	263711_at	TRUE	FALSE	AT2G20630	PIA1	PP2C induced by AVRRPM1	0.522247268753963	0.444965159627603	0.649854381183336	0.578038065626331	0.576843596001383	0.608829200672409
2	264624_at	TRUE	FALSE	AT1G08930	ERD6	Major facilitator superfamily protein	0.590440705811854	0.540006296791139	0.714309584423779	0.468459307722102	0.467784253322863	0.643067651037197
2	265194_at	TRUE	FALSE	AT1G05010	EFE|ACO4|EAT1	ethylene-forming enzyme	0.542734798650211	0.527042848694566	0.690358677930408	0.566862134946587	0.463778907907884	0.619579241020016
2	267392_at	TRUE	FALSE	AT2G44490	PEN2|BGLU26	Glycosyl hydrolase superfamily protein	0.585433613584216	0.506782934518148	0.707457165290788	0.520357562294119	0.499351744054081	0.613703145882974
