GSM1074839
GSM1074838
GSM1074837
GSM1074836
GSM1074834
GSM1074833
GSM1074832
GSM1074831
GSM1074830
GSM1074829
GSM1074827
GSM1074826
GSM1074825
GSM1074824
GSM1144683
GSM1144681
GSM1144680
GSM1144679
GSM1144678
GSM1144677
GSM1144676
GSM1144675
GSM1149320
GSM1149319
GSM1149318
GSM1149317
GSM1149316
GSM1149315
GSM1133643
GSM1133642
GSM1133641
GSM1133640
GSM349911
GSM349892
GSM349883
GSM349882
GSM349881
GSM349872
GSM349871
GSM349870
GSM1079197
GSM1079196
GSM1079195
GSM1079194
GSM1079193
GSM1079192
GSM807195
GSM807194
GSM807193
GSM807192
GSM807191
GSM807190
GSM807189
GSM807188
GSM807187
GSM807186
GSM807185
GSM807184
GSM1020346
GSM1020345
GSM1020344
GSM1020343
GSM1123861
GSM1123860
GSM1123859
GSM1123858
GSM1123857
GSM1123856
GSM1123855
GSM1123854
GSM1123853
GSM1123852
GSM1123851
GSM1123850
GSM1123849
GSM1123848
GSM1123847
GSM1123846
GSM1123845
GSM1123844
GSM1123843
GSM1123842
GSM1123841
GSM1123840
GSM1123839
GSM1123838
GSM1123837
GSM1123836
GSM1123835
GSM1123834
GSM1123833
GSM1123832
GSM1088449
GSM1088448
GSM1088447
GSM1088446
GSM1088445
GSM1088444
GSM1088443
GSM1088442
GSM835814
GSM835813
GSM835812
GSM835811
GSM835810
GSM835809
GSM835808
GSM839869
GSM839868
GSM839867
GSM839866
GSM839865
GSM839864
GSM839863
GSM839862
GSM937958
GSM937957
GSM934627
GSM934625
GSM934624
GSM934622
GSM934621
GSM929940
GSM929939
GSM929938
GSM929937
GSM929936
GSM929935
GSM929934
GSM929933
GSM929932
GSM928437
GSM928436
GSM928435
GSM928434
GSM861436
GSM861435
GSM861434
GSM861433
GSM861432
GSM861431
GSM861430
GSM861429
GSM861428
GSM861427
GSM861426
GSM861425
GSM861424
GSM861423
GSM861422
GSM861421
GSM861420
GSM861419
GSM861418
GSM861417
GSM861416
GSM861415
GSM861414
GSM861413
GSM857534
GSM857533
GSM857532
GSM857531
GSM857530
GSM857529
GSM873580
GSM873579
GSM873578
GSM873577
GSM873576
GSM873575
GSM873574
GSM873573
GSM873572
GSM873571
GSM873570
GSM873569
GSM870368
GSM870367
GSM870366
GSM870365
GSM870364
GSM870363
GSM870362
GSM870361
GSM870360
GSM870359
GSM870358
GSM870357
GSM921523
GSM921522
GSM921521
GSM921520
GSM921519
GSM921518
GSM914971
GSM914970
GSM914969
GSM914968
GSM914967
GSM1088441
GSM1088440
GSM1088439
GSM1088438
GSM1088437
GSM1088436
GSM1088435
GSM1088434
GSM989204
GSM989203
GSM989202
GSM989201
GSM989200
GSM989199
GSM989198
GSM989197
GSM989196
GSM989195
GSM989194
GSM989193
GSM1113278
GSM1113277
GSM1113276
GSM1113275
GSM1113274
GSM1113273
GSM1113272
GSM1113271
GSM1113270
GSM1113269
GSM1113268
GSM1113267
GSM1111759
GSM1111758
GSM1111757
GSM1111756
GSM1111409
GSM1111408
GSM1111407
GSM1111406
GSM1111405
GSM1111404
GSM1111403
GSM1111402
GSM1111401
GSM1111400
GSM1026945
GSM1026944
GSM1026943
GSM1026942
GSM1026941
GSM1026940
GSM1026939
GSM1026938
GSM1026937
GSM1026936
GSM1026935
GSM1026934
GSM1054985
GSM1054984
GSM1054983
GSM1054982
GSM1054981
GSM1054980
GSM1054979
GSM1054978
GSM1054977
GSM1054976
GSM1054975
GSM1054974
GSM932771
GSM932770
GSM932769
GSM932768
GSM932767
GSM932766
GSM932765
GSM932764
GSM932763
GSM932762
GSM932761
GSM932760
GSM932759
GSM932758
GSM932757
GSM932756
GSM932755
GSM932754
GSM932753
GSM932752
GSM932751
GSM932750
GSM932749
GSM932748
GSM932747
GSM932746
GSM932745
GSM932744
GSM932743
GSM932742
GSM914966
GSM914965
GSM914964
GSM894481
GSM894480
GSM894479
GSM894478
GSM894477
GSM894476
GSM908553
GSM908552
GSM908551
GSM908550
GSM908549
GSM908548
GSM908547
GSM908546
GSM908545
GSM908544
GSM908543
GSM908542
GSM784841
GSM784840
GSM784839
GSM784838
GSM784837
GSM784836
GSM784835
GSM784834
GSM784833
GSM784832
GSM784831
GSM784830
GSM784829
GSM784828
GSM784827
GSM784826
GSM784825
GSM784824
GSM784823
GSM784822
GSM784821
GSM784820
GSM907501
GSM907500
GSM856038
GSM856037
GSM856036
GSM856035
GSM856034
GSM856033
GSM845194
GSM845193
GSM845192
GSM845191
GSM845190
GSM845189
GSM845188
GSM845187
GSM845186
GSM845185
GSM845184
GSM845183
GSM906787
GSM906786
GSM906785
GSM906784
GSM904848
GSM904847
GSM904846
GSM904845
GSM904844
GSM904843
GSM904842
GSM904841
GSM904840
GSM904839
GSM904838
GSM904837
GSM904836
GSM904835
GSM862907
GSM862906
GSM862905
GSM862904
GSM862903
GSM862902
GSM862901
GSM862900
GSM862899
GSM656178
GSM656177
GSM656176
GSM656175
GSM656174
GSM656173
GSM784921
GSM784920
GSM784919
GSM784918
GSM784917
GSM784916
GSM784915
GSM784914
GSM784913
GSM784912
GSM784911
GSM784910
GSM784909
GSM784908
GSM784907
GSM680442
GSM680441
GSM680440
GSM680439
GSM680438
GSM680437
GSM680436
GSM680435
GSM680434
GSM680433
GSM680432
GSM680431
GSM680430
GSM680429
GSM680428
GSM680427
GSM680426
GSM680425
GSM680424
GSM680423
GSM680422
GSM680421
GSM680420
GSM680419
GSM680371
GSM680370
GSM680369
GSM680368
GSM680367
GSM680366
GSM680365
GSM680364
GSM680363
GSM680362
GSM680361
GSM680360
GSM680359
GSM680358
GSM680357
GSM680356
GSM680355
GSM680354
GSM680353
GSM680352
GSM680351
GSM680350
GSM680349
GSM680348
GSM680347
GSM680346
GSM680345
GSM680344
GSM680343
GSM680342
GSM692489
GSM692488
GSM692487
GSM692486
GSM692485
GSM692484
GSM692483
GSM692482
GSM692481
GSM692480
GSM692479
GSM692478
GSM692477
GSM692476
GSM692475
GSM692474
GSM692473
GSM692472
GSM692471
GSM692470
GSM692469
GSM692468
GSM692467
GSM692466
GSM692465
GSM692464
GSM692463
GSM692462
GSM692461
GSM692460
GSM604647
GSM604646
GSM604645
GSM604644
GSM604643
GSM604642
GSM604641
GSM604640
GSM604639
GSM604638
GSM604637
GSM604636
GSM604635
GSM604634
GSM604633
GSM604632
GSM604631
GSM604630
GSM604629
GSM604628
GSM604627
GSM604626
GSM604625
GSM604624
GSM604623
GSM604622
GSM604621
GSM604620
GSM604619
GSM604618
GSM604617
GSM604616
GSM604615
GSM604614
GSM604613
GSM604612
GSM604611
GSM604610
GSM604609
GSM604608
GSM604607
GSM604606
GSM604605
GSM604604
GSM604603
GSM604602
GSM604601
GSM876931
GSM876930
GSM851702
GSM851701
GSM851700
GSM851699
GSM851698
GSM851697
GSM851696
GSM851690
GSM851689
GSM851688
GSM851687
GSM851686
GSM864607
GSM864606
GSM864605
GSM864604
GSM864603
GSM864602
GSM864601
GSM864600
GSM864599
GSM864598
GSM864597
GSM864596
GSM865985
GSM865984
GSM865983
GSM865982
GSM865981
GSM865980
GSM865979
GSM865978
GSM865977
GSM865976
GSM865975
GSM865974
GSM865973
GSM865972
GSM865971
GSM865970
GSM865969
GSM865968
GSM865967
GSM865966
GSM840977
GSM840976
GSM840975
GSM840974
GSM840973
GSM840972
GSM840971
GSM840970
GSM840969
GSM840968
GSM840967
GSM840966
GSM840965
GSM840964
GSM840963
GSM840962
GSM840961
GSM840960
GSM840959
GSM840958
GSM840957
GSM840956
GSM840955
GSM840954
GSM857282
GSM857281
GSM857280
GSM857279
GSM857278
GSM857277
GSM857276
GSM857275
GSM857274
GSM857273
GSM857272
GSM857271
GSM857270
GSM857269
GSM857268
GSM857267
GSM857266
GSM857265
GSM857264
GSM857263
GSM857262
GSM857261
GSM857260
GSM857259
GSM743213
GSM743212
GSM743211
GSM743210
GSM743209
GSM743208
GSM743207
GSM743206
GSM743205
GSM743204
GSM743203
GSM743202
GSM743201
GSM743200
GSM743199
GSM743198
GSM743197
GSM743196
GSM743195
GSM743194
GSM743193
GSM785838
GSM785837
GSM785836
GSM785835
GSM785834
GSM785833
GSM570987
GSM570986
GSM570985
GSM570984
GSM570983
GSM570982
GSM570981
GSM570980
GSM570979
GSM570978
GSM570977
GSM570976
GSM570975
GSM570974
GSM570973
GSM788401
GSM788400
GSM788399
GSM788398
GSM788397
GSM788396
GSM788395
GSM788394
GSM788393
GSM788392
GSM788391
GSM788390
GSM738136
GSM738135
GSM738134
GSM738133
GSM738132
GSM738131
GSM738130
GSM713260
GSM713259
GSM713258
GSM713257
GSM713256
GSM713255
GSM713254
GSM713253
GSM713252
GSM713251
GSM713250
GSM713249
GSM698653
GSM698652
GSM698651
GSM698650
GSM698649
GSM698648
GSM698647
GSM698646
GSM698645
GSM698644
GSM698643
GSM698642
GSM566631
GSM566630
GSM566629
GSM566628
GSM566627
GSM566626
GSM566625
GSM566624
GSM566623
GSM566622
GSM566621
GSM566620
GSM566619
GSM566618
GSM566617
GSM566616
GSM566615
GSM566614
GSM852949
GSM852948
GSM852947
GSM852946
GSM852945
GSM852944
GSM852943
GSM852942
GSM852941
GSM852940
GSM852939
GSM852938
GSM852937
GSM852936
GSM852935
GSM852934
GSM852933
GSM852932
GSM852931
GSM852930
GSM852929
GSM852928
GSM852927
GSM852926
GSM852925
GSM852924
GSM852923
GSM494283
GSM494282
GSM494281
GSM494280
GSM494279
GSM494278
GSM655502
GSM655501
GSM655500
GSM655499
GSM655498
GSM655497
GSM655496
GSM655495
GSM655494
GSM797733
GSM797732
GSM797731
GSM797730
GSM797729
GSM797728
GSM797727
GSM797726
GSM797725
GSM797724
GSM797723
GSM797722
GSM797721
GSM797720
GSM797719
GSM797718
GSM797717
GSM797716
GSM844536
GSM844535
GSM844534
GSM844533
GSM844532
GSM844531
GSM844530
GSM844529
GSM844528
GSM844527
GSM844526
GSM844525
GSM771397
GSM771396
GSM771395
GSM771394
GSM771393
GSM771392
GSM771391
GSM771390
GSM771389
GSM771388
GSM771387
GSM771386
GSM771385
GSM771384
GSM771383
GSM771382
GSM771381
GSM771380
GSM771379
GSM771378
GSM771377
GSM771376
GSM771375
GSM771374
GSM771373
GSM707792
GSM707791
GSM707790
GSM707789
GSM707788
GSM707787
GSM707786
GSM707785
GSM707784
GSM707783
GSM707782
GSM707781
GSM707780
GSM707779
GSM707778
GSM707777
GSM707776
GSM707775
GSM707774
GSM707773
GSM707772
GSM707771
GSM707770
GSM707769
GSM707768
GSM707767
GSM566893
GSM566892
GSM566891
GSM566890
GSM566889
GSM566888
GSM566887
GSM566886
GSM566885
GSM566884
GSM566883
GSM566882
GSM566881
GSM566880
GSM566879
GSM566878
GSM566877
GSM566876
GSM566875
GSM566874
GSM566873
GSM566872
GSM566871
GSM566870
GSM566869
GSM566868
GSM566867
GSM566866
GSM566865
GSM566864
GSM566863
GSM566862
GSM566861
GSM566860
GSM566859
GSM566858
GSM750311
GSM750310
GSM750309
GSM750308
GSM750307
GSM750306
GSM791918
GSM791917
GSM791916
GSM791915
GSM791914
GSM791913
GSM791912
GSM791911
GSM791910
GSM791909
GSM791908
GSM791907
GSM791906
GSM791905
GSM791904
GSM744834
GSM744833
GSM744832
GSM744831
GSM744830
GSM744829
GSM744828
GSM744827
GSM744826
GSM744825
GSM744824
GSM744823
GSM744822
GSM744821
GSM744820
GSM744819
GSM744818
GSM744817
GSM744816
GSM744815
GSM744814
GSM744813
GSM744812
GSM744811
GSM744810
GSM744809
GSM744808
GSM744807
GSM744806
GSM744805
GSM744804
GSM744803
GSM744802
GSM744801
GSM744800
GSM744799
GSM744798
GSM744797
GSM744796
GSM744795
GSM744794
GSM744793
GSM744792
GSM744791
GSM744790
GSM744789
GSM744788
GSM744787
GSM744786
GSM744785
GSM744784
GSM744783
GSM744782
GSM744781
GSM744780
GSM744779
GSM744778
GSM744777
GSM744776
GSM744775
GSM744774
GSM744773
GSM744772
GSM744771
GSM744770
GSM744769
GSM744768
GSM744767
GSM744766
GSM744765
GSM744764
GSM744763
GSM744762
GSM744761
GSM744760
GSM744759
GSM744758
GSM744757
GSM744756
GSM744755
GSM744754
GSM744753
GSM744752
GSM744751
GSM744750
GSM744749
GSM744748
GSM744747
GSM744746
GSM744745
GSM744744
GSM744743
GSM744742
GSM744741
GSM744740
GSM744739
GSM744738
GSM744737
GSM744736
GSM744735
GSM744734
GSM744733
GSM744732
GSM744731
GSM744730
GSM744729
GSM744728
GSM744727
GSM744726
GSM744699
GSM744698
GSM744697
GSM476826
GSM476825
GSM476824
GSM476823
GSM476822
GSM476821
GSM830739
GSM830738
GSM830737
GSM738883
GSM738882
GSM738881
GSM738880
GSM738879
GSM738878
GSM738877
GSM738876
GSM738875
GSM738874
GSM738873
GSM738872
GSM826265
GSM826264
GSM826263
GSM826262
GSM826261
GSM826260
GSM826259
GSM810601
GSM810600
GSM810599
GSM810598
GSM810597
GSM810596
GSM741169
GSM741168
GSM741167
GSM741166
GSM741165
GSM741164
GSM741163
GSM741162
GSM741161
GSM741160
GSM741159
GSM741158
GSM741157
GSM741156
GSM741155
GSM741154
GSM741153
GSM741152
GSM722209
GSM722208
GSM722207
GSM722206
GSM722205
GSM722204
GSM722175
GSM722174
GSM722131
GSM722130
GSM722129
GSM722109
GSM722097
GSM722096
GSM721896
GSM721837
GSM721836
GSM721835
GSM810992
GSM810991
GSM810990
GSM810989
GSM810988
GSM810987
GSM810986
GSM810985
GSM810984
GSM810983
GSM720641
GSM720640
GSM720639
GSM720638
GSM720637
GSM720636
GSM720635
GSM720634
GSM720633
GSM720632
GSM720631
GSM720630
GSM720629
GSM720628
GSM720627
GSM720626
GSM720625
GSM720624
GSM664666
GSM664665
GSM664664
GSM664663
GSM664662
GSM664661
GSM664660
GSM664659
GSM664658
GSM664657
GSM664656
GSM664655
GSM664654
GSM664653
GSM664652
GSM664651
GSM664650
GSM664649
GSM664648
GSM664647
GSM664646
GSM664645
GSM664644
GSM664643
GSM610385
GSM610384
GSM610383
GSM610382
GSM610381
GSM610380
GSM610379
GSM610378
GSM610377
GSM610376
GSM610375
GSM610374
GSM751292
GSM751291
GSM751290
GSM751289
GSM748495
GSM748494
GSM748493
GSM748492
GSM748491
GSM748490
GSM748489
GSM748488
GSM748487
GSM748486
GSM748485
GSM748484
GSM748483
GSM748482
GSM748481
GSM748480
GSM748479
GSM748478
GSM748477
GSM748476
GSM748475
GSM748474
GSM748473
GSM748472
GSM748471
GSM748470
GSM748469
GSM748468
GSM748467
GSM748466
GSM728692
GSM728691
GSM728690
GSM728689
GSM728688
GSM728687
GSM685766
GSM685765
GSM685764
GSM685763
GSM685762
GSM685761
GSM609891
GSM609890
GSM609889
GSM609888
GSM609887
GSM609886
GSM595554
GSM595553
GSM595552
GSM595551
GSM595550
GSM595549
GSM595548
GSM595547
GSM595546
GSM572656
GSM572655
GSM572654
GSM572653
GSM572652
GSM572651
GSM572650
GSM572649
GSM572648
GSM572647
GSM572646
GSM572645
GSM572644
GSM572643
GSM572642
GSM572641
GSM572640
GSM572639
GSM572638
GSM572637
GSM572636
GSM572635
GSM572634
GSM572633
GSM572632
GSM572631
GSM572630
GSM782772
GSM782771
GSM782770
GSM645709
GSM645708
GSM645707
GSM645706
GSM645705
GSM645704
GSM645703
GSM645702
GSM645701
GSM645700
GSM645699
GSM645698
GSM645697
GSM645696
GSM645695
GSM645694
GSM645693
GSM645692
GSM645691
GSM645690
GSM420243
GSM420242
GSM420241
GSM420240
GSM420239
GSM420238
GSM420237
GSM420236
GSM420235
GSM420234
GSM420233
GSM420232
GSM761706
GSM761705
GSM761704
GSM761703
GSM761702
GSM761701
GSM761700
GSM761699
GSM761698
GSM761697
GSM761696
GSM761695
GSM932741
GSM932740
GSM932739
GSM932738
GSM932737
GSM932736
GSM932735
GSM932734
GSM687593
GSM687592
GSM687591
GSM687590
GSM687589
GSM687588
GSM725904
GSM725903
GSM725902
GSM725901
GSM725900
GSM725899
GSM725898
GSM725897
GSM725896
GSM725895
GSM725894
GSM725893
GSM977835
GSM977834
GSM977833
GSM977832
GSM977831
GSM977830
GSM977829
GSM977828
GSM977827
GSM977826
GSM977825
GSM977824
GSM1031874
GSM1031873
GSM1031872
GSM1031871
GSM1031870
GSM1031869
GSM660718
GSM660717
GSM660716
GSM660715
GSM660714
GSM660713
GSM660712
GSM660711
GSM660710
GSM660709
GSM660708
GSM660707
GSM991922
GSM991921
GSM991920
GSM991919
GSM991918
GSM991917
GSM991916
GSM991915
GSM991914
GSM991913
GSM991912
GSM991911
GSM991910
GSM991909
GSM991908
GSM991907
GSM991906
GSM991905
GSM991904
GSM991903
GSM991902
GSM991901
GSM991900
GSM991899
GSM991898
GSM991897
GSM991896
GSM991895
GSM991894
GSM991893
GSM991892
GSM991891
GSM991890
GSM991889
GSM991888
GSM991887
GSM991886
GSM991885
GSM991884
GSM991883
GSM991882
GSM991881
GSM991880
GSM991879
GSM761694
GSM761693
GSM761692
GSM761691
GSM756411
GSM756410
GSM756409
GSM756408
GSM756407
GSM756406
GSM756405
GSM756404
GSM756403
GSM756402
GSM756401
GSM756400
GSM756399
GSM756398
GSM756397
GSM756396
GSM577727
GSM577726
GSM577725
GSM577724
GSM577723
GSM577719
GSM577718
GSM577717
GSM768919
GSM768918
GSM768917
GSM768916
GSM768915
GSM768914
GSM679548
GSM679547
GSM679546
GSM679545
GSM679544
GSM679543
GSM679542
GSM679541
GSM679540
GSM679539
GSM679538
GSM679537
GSM736727
GSM736726
GSM736725
GSM736724
GSM736723
GSM736722
GSM615840
GSM615839
GSM615838
GSM615837
GSM615836
GSM615835
GSM615834
GSM615833
GSM615832
GSM615831
GSM615830
GSM615829
GSM567326
GSM567325
GSM567324
GSM567323
GSM567322
GSM567321
GSM567320
GSM567319
GSM567318
GSM732614
GSM732613
GSM732612
GSM732611
GSM732610
GSM732609
GSM732608
GSM732607
GSM732606
GSM732605
GSM732604
GSM732603
GSM732602
GSM732601
GSM732600
GSM624465
GSM624464
GSM624463
GSM624462
GSM694054
GSM694053
GSM694052
GSM694051
GSM694050
GSM694049
GSM694048
GSM694047
GSM562216
GSM562215
GSM562214
GSM562213
GSM562212
GSM562211
GSM562210
GSM562209
GSM562208
GSM685386
GSM685385
GSM685384
GSM685383
GSM685382
GSM685381
GSM687797
GSM687796
GSM687795
GSM687794
GSM687793
GSM687792
GSM687791
GSM687790
GSM687789
GSM714947
GSM714946
GSM714945
GSM714944
GSM712397
GSM712396
GSM712395
GSM712394
GSM712393
GSM712392
GSM712391
GSM712390
GSM712389
GSM712388
GSM712387
GSM712386
GSM545386
GSM545385
GSM545384
GSM545383
GSM545382
GSM545381
GSM545380
GSM545379
GSM545378
GSM545377
GSM545376
GSM545375
GSM545374
GSM545373
GSM545372
GSM545371
GSM545370
GSM545369
GSM545368
GSM545367
GSM545366
GSM545365
GSM545364
GSM545363
GSM703134
GSM703133
GSM703132
GSM703131
GSM703130
GSM703129
GSM703128
GSM703127
GSM703126
GSM703125
GSM703124
GSM703123
GSM604755
GSM604754
GSM604753
GSM604752
GSM604751
GSM604750
GSM571896
GSM571895
GSM571894
GSM571893
GSM571892
GSM571891
GSM702593
GSM702592
GSM702591
GSM702590
GSM702589
GSM702588
GSM702587
GSM702586
GSM702585
GSM702584
GSM702583
GSM702582
GSM702581
GSM702580
GSM702579
GSM702578
GSM702577
GSM702576
GSM686109
GSM686108
GSM686107
GSM686106
GSM686105
GSM686104
GSM686103
GSM686102
GSM686101
GSM643110
GSM643109
GSM643108
GSM643107
GSM643106
GSM643105
GSM643104
GSM643103
GSM643102
GSM643101
GSM643100
GSM643099
GSM643098
GSM643097
GSM643096
GSM643095
GSM594720
GSM594719
GSM594718
GSM594717
GSM594716
GSM594715
GSM594714
GSM594713
GSM594712
GSM594711
GSM594710
GSM594709
GSM594708
GSM594707
GSM594706
GSM594705
GSM594704
GSM594703
GSM594702
GSM594701
GSM699790
GSM699789
GSM699788
GSM699787
GSM699786
GSM699785
GSM699784
GSM699783
GSM699782
GSM540952
GSM540951
GSM540950
GSM540949
GSM540948
GSM540947
GSM540946
GSM540945
GSM540944
GSM540943
GSM540942
GSM540941
GSM540940
GSM540939
GSM540938
GSM540937
GSM540936
GSM540935
GSM540934
GSM540933
GSM540932
GSM540931
GSM540930
GSM540929
GSM540928
GSM540927
GSM540926
GSM540925
GSM540924
GSM540923
GSM540922
GSM540921
GSM540920
GSM540919
GSM540918
GSM540917
GSM540916
GSM540915
GSM540914
GSM540913
GSM540912
GSM540911
GSM540910
GSM540909
GSM540908
GSM540907
GSM540906
GSM540905
GSM698628
GSM698627
GSM698626
GSM698625
GSM698624
GSM698623
GSM698622
GSM698621
GSM698620
GSM698619
GSM698618
GSM698617
GSM698616
GSM698615
GSM698614
GSM698613
GSM698612
GSM698611
GSM626552
GSM626551
GSM626550
GSM626549
GSM626548
GSM626547
GSM626546
GSM626545
GSM626544
GSM626543
GSM626542
GSM626541
GSM626540
GSM626539
GSM626538
GSM626537
GSM626536
GSM626535
GSM601293
GSM601292
GSM601291
GSM601290
GSM601289
GSM601288
GSM601287
GSM697675
GSM697674
GSM664063
GSM664062
GSM664061
GSM664060
GSM664059
GSM664058
GSM508447
GSM508446
GSM508445
GSM508444
GSM508443
GSM508442
GSM508441
GSM508440
GSM508439
GSM508438
GSM508437
GSM508436
GSM609343
GSM609342
GSM609341
GSM609340
GSM609339
GSM609338
GSM609337
GSM609336
GSM590024
GSM590023
GSM590022
GSM590021
GSM590020
GSM590019
GSM520763
GSM520762
GSM520761
GSM520760
GSM520759
GSM520758
GSM520757
GSM520756
GSM520755
GSM520754
GSM520753
GSM520752
GSM520751
GSM520750
GSM520749
GSM520748
GSM678851
GSM678850
GSM678849
GSM678848
GSM678847
GSM678846
GSM678845
GSM678844
GSM678843
GSM678842
GSM678841
GSM678840
GSM678839
GSM678838
GSM678837
GSM678836
GSM612048
GSM612047
GSM612046
GSM612045
GSM612044
GSM612043
GSM587915
GSM587914
GSM587913
GSM587912
GSM587911
GSM587910
GSM587909
GSM587908
GSM587907
GSM587906
GSM587905
GSM587904
GSM325131
GSM325130
GSM325129
GSM325128
GSM325127
GSM325126
GSM674596
GSM674595
GSM674594
GSM674593
GSM674592
GSM674591
GSM674590
GSM674589
GSM674588
GSM674587
GSM618347
GSM618346
GSM618345
GSM618344
GSM618343
GSM618342
GSM618341
GSM618340
GSM618339
GSM618338
GSM618337
GSM618336
GSM618335
GSM618334
GSM618333
GSM618332
GSM618331
GSM618330
GSM618329
GSM618328
GSM618327
GSM618326
GSM618325
GSM618324
GSM640426
GSM640425
GSM640424
GSM640423
GSM656520
GSM656519
GSM656518
GSM656517
GSM656516
GSM656515
GSM656514
GSM656513
GSM656512
GSM656511
GSM656510
GSM656509
GSM656508
GSM656507
GSM656506
GSM656505
GSM656504
GSM656503
GSM656502
GSM656501
GSM656500
GSM656499
GSM656498
GSM656497
GSM656496
GSM656495
GSM656494
GSM656493
GSM656492
GSM656491
GSM656490
GSM656489
GSM568425
GSM568424
GSM568423
GSM568422
GSM617580
GSM617579
GSM617578
GSM617577
GSM617576
GSM617575
GSM617574
GSM617573
GSM617572
GSM566577
GSM566576
GSM566575
GSM566574
GSM566573
GSM566572
GSM566571
GSM566570
GSM566569
GSM566568
GSM566567
GSM566566
GSM566565
GSM566564
GSM566563
GSM566562
GSM566561
GSM566560
GSM566559
GSM566558
GSM566557
GSM566556
GSM566555
GSM566554
GSM554320
GSM554319
GSM554318
GSM554317
GSM554316
GSM554315
GSM554314
GSM554313
GSM554312
GSM554311
GSM645104
GSM645103
GSM645102
GSM645101
GSM645100
GSM645099
GSM645098
GSM645097
GSM645096
GSM645095
GSM645094
GSM645093
GSM468789
GSM468788
GSM468787
GSM468786
GSM566484
GSM566483
GSM566482
GSM566481
GSM566480
GSM566479
GSM566478
GSM566477
GSM566476
GSM566475
GSM566474
GSM566473
GSM352685
GSM352684
GSM591839
GSM591838
GSM591837
GSM591836
GSM591835
GSM591834
GSM523979
GSM523978
GSM523977
GSM523976
GSM523975
GSM523974
GSM419048
GSM419047
GSM419046
GSM419045
GSM419044
GSM419043
GSM419042
GSM419041
GSM419040
GSM419039
GSM419038
GSM419037
GSM419036
GSM419035
GSM419034
GSM419033
GSM419032
GSM419031
GSM419030
GSM419029
GSM419028
GSM419027
GSM419026
GSM419025
GSM635504
GSM635503
GSM635502
GSM635501
GSM290630
GSM290629
GSM290628
GSM290627
GSM290626
GSM290625
GSM486939
GSM486938
GSM486937
GSM486936
GSM486935
GSM486934
GSM486933
GSM486932
GSM486931
GSM486930
GSM486929
GSM486928
GSM486927
GSM486926
GSM486925
GSM486924
GSM486923
GSM486922
GSM486921
GSM486920
GSM486919
GSM486918
GSM486917
GSM486916
GSM486915
GSM486914
GSM486913
GSM486912
GSM486911
GSM486910
GSM486909
GSM486908
GSM486907
GSM486906
GSM486905
GSM486904
GSM486903
GSM486902
GSM486901
GSM486900
GSM486899
GSM486898
GSM486897
GSM486896
GSM486895
GSM486894
GSM486893
GSM486892
GSM634312
GSM634311
GSM634310
GSM634309
GSM634308
GSM634307
GSM564564
GSM564563
GSM564562
GSM564561
GSM358340
GSM358339
GSM358338
GSM358337
GSM629876
GSM629875
GSM629874
GSM629873
GSM629872
GSM579099
GSM579098
GSM579097
GSM579096
GSM579095
GSM579094
GSM579093
GSM579092
GSM579091
GSM579090
GSM579089
GSM579088
GSM592105
GSM592104
GSM592103
GSM592102
GSM592101
GSM592100
GSM592099
GSM592098
GSM592097
GSM592096
GSM592075
GSM592074
GSM592073
GSM592072
GSM591294
GSM591293
GSM591291
GSM591288
GSM591285
GSM591266
GSM543967
GSM543966
GSM543965
GSM543964
GSM543963
GSM543962
GSM543961
GSM543960
GSM543959
GSM543958
GSM543957
GSM543956
GSM501209
GSM501208
GSM501207
GSM501206
GSM501205
GSM501204
GSM501203
GSM501202
GSM501201
GSM501200
GSM501199
GSM501198
GSM501197
GSM501196
GSM501195
GSM501194
GSM501193
GSM501192
GSM501191
GSM501190
GSM501189
GSM501188
GSM501187
GSM501186
GSM501185
GSM501184
GSM517090
GSM517089
GSM517088
GSM517087
GSM517086
GSM517085
GSM517084
GSM517083
GSM517082
GSM517081
GSM517080
GSM517079
GSM517078
GSM517077
GSM517076
GSM517075
GSM517074
GSM517073
GSM587323
GSM587322
GSM587321
GSM587320
GSM587319
GSM587318
GSM522420
GSM522419
GSM522418
GSM522417
GSM522416
GSM522415
GSM522414
GSM522413
GSM522412
GSM522411
GSM522410
GSM522409
GSM462529
GSM462528
GSM462527
GSM462526
GSM462525
GSM462524
GSM538628
GSM538627
GSM535991
GSM535990
GSM535989
GSM535988
GSM535987
GSM535986
GSM535985
GSM535984
GSM570942
GSM570941
GSM570940
GSM570939
GSM570938
GSM570937
GSM605345
GSM605344
GSM605343
GSM605342
GSM605341
GSM605340
GSM476850
GSM476849
GSM476848
GSM476847
GSM476846
GSM476845
GSM476844
GSM476843
GSM476842
GSM476841
GSM476840
GSM476839
GSM476838
GSM476837
GSM476836
GSM476835
GSM476834
GSM476833
GSM476832
GSM476831
GSM476830
GSM476829
GSM476828
GSM476827
GSM476804
GSM476803
GSM476802
GSM476801
GSM476800
GSM476799
GSM457804
GSM457803
GSM457802
GSM457801
GSM457191
GSM457190
GSM457189
GSM457188
GSM600285
GSM600284
GSM600283
GSM600282
GSM600281
GSM600280
GSM600279
GSM600278
GSM600277
GSM600276
GSM600275
GSM600274
GSM600273
GSM600272
GSM600271
GSM600270
GSM600269
GSM600268
GSM600267
GSM600266
GSM600265
GSM600264
GSM600263
GSM600262
GSM436277
GSM436276
GSM436275
GSM436274
GSM436273
GSM436272
GSM436271
GSM436270
GSM436269
GSM436268
GSM436267
GSM436266
GSM436265
GSM436264
GSM436263
GSM436262
GSM436261
GSM436260
GSM506422
GSM506421
GSM506420
GSM506419
GSM506418
GSM506417
GSM506416
GSM506415
GSM539490
GSM539489
GSM539488
GSM539487
GSM539486
GSM539485
GSM539484
GSM539483
GSM539482
GSM539481
GSM539480
GSM539479
GSM539478
GSM539477
GSM539476
GSM539475
GSM539474
GSM539473
GSM539472
GSM539471
GSM539470
GSM539469
GSM539468
GSM539467
GSM539466
GSM539465
GSM539464
GSM539463
GSM539462
GSM539461
GSM539460
GSM539459
GSM539458
GSM539457
GSM539456
GSM539455
GSM539454
GSM539453
GSM539452
GSM463702
GSM463701
GSM463700
GSM463699
GSM463698
GSM463697
GSM463696
GSM463695
GSM463694
GSM463693
GSM463692
GSM463691
GSM499301
GSM499300
GSM499299
GSM499298
GSM499297
GSM499296
GSM499695
GSM499694
GSM499693
GSM499692
GSM499691
GSM499690
GSM499689
GSM499688
GSM499687
GSM499686
GSM499685
GSM499684
GSM499683
GSM586333
GSM586332
GSM586331
GSM586330
GSM586329
GSM586328
GSM539333
GSM991878
GSM991877
GSM991876
GSM991875
GSM991874
GSM991873
GSM991872
GSM1091683
GSM1091682
GSM1091681
GSM1091680
GSM1091679
GSM1077009
GSM1077008
GSM1077007
GSM1077006
GSM953358
GSM953357
GSM953356
GSM953355
GSM953354
GSM953353
GSM953344
GSM953343
GSM953147
GSM955996
GSM955995
GSM955994
GSM955993
GSM955992
GSM955991
GSM955990
GSM955989
GSM955988
GSM955987
GSM955986
GSM955985
GSM799767
GSM799766
GSM799765
GSM799764
GSM799763
GSM799762
GSM799761
GSM799760
GSM799759
GSM1051242
GSM1051241
GSM1051240
GSM1051239
GSM1051238
GSM643161
GSM643160
GSM643159
GSM643158
GSM643157
GSM643156
GSM643155
GSM643154
GSM643153
GSM951348
GSM951347
GSM951346
GSM951345
GSM951344
GSM951343
GSM951342
GSM951341
GSM951340
GSM951339
GSM951338
GSM951337
GSM951336
GSM951335
GSM951334
GSM951333
GSM1009061
GSM1009060
GSM1009059
GSM1009058
GSM1009057
GSM1009056
GSM1009055
GSM1009054
GSM1009053
GSM1009052
GSM1009051
GSM1009050
GSM1009049
GSM1009048
GSM1009047
GSM1009046
GSM1009045
GSM1009044
GSM1009043
GSM1009042
GSM1009041
GSM1009040
GSM1009039
GSM1009038
GSM539332
GSM539331
GSM539330
GSM539329
GSM539328
GSM539327
GSM539326
GSM539325
GSM539324
GSM539323
GSM539322
GSM539321
GSM539320
GSM539319
GSM539318
GSM539317
GSM539316
GSM539315
GSM539314
GSM539313
GSM539312
GSM539311
GSM539310
GSM457658
GSM457657
GSM457656
GSM457655
GSM457654
GSM457653
GSM457652
GSM457651
GSM457650
GSM457649
GSM457648
GSM457647
GSM457646
GSM457645
GSM457644
GSM457643
GSM457642
GSM457641
GSM541657
GSM541656
GSM541655
GSM541654
GSM541653
GSM541652
GSM541651
GSM541650
GSM398695
GSM398694
GSM398693
GSM398692
GSM398691
GSM398690
GSM398689
GSM398688
GSM398687
GSM398686
GSM398685
GSM398684
GSM398683
GSM398682
GSM398681
GSM398680
GSM398679
GSM398678
GSM398677
GSM398676
GSM398675
GSM398674
GSM398673
GSM507046
GSM507045
GSM507044
GSM507043
GSM507139
GSM507138
GSM507137
GSM507135
GSM507134
GSM507133
GSM507132
GSM507131
GSM507129
GSM507128
GSM507068
GSM507067
GSM507066
GSM507065
GSM507064
GSM507063
GSM507062
GSM507060
GSM507059
GSM507058
GSM477819
GSM477818
GSM477817
GSM477816
GSM477815
GSM477813
GSM563087
GSM563086
GSM563085
GSM563084
GSM563083
GSM563082
GSM560413
GSM560412
GSM560411
GSM560410
GSM560409
GSM560408
GSM491689
GSM491688
GSM491687
GSM491686
GSM491685
GSM491684
GSM491683
GSM491682
GSM491681
GSM491680
GSM491679
GSM491678
GSM491677
GSM491676
GSM491675
GSM491674
GSM491673
GSM491672
GSM491671
GSM491670
GSM491669
GSM491668
GSM491667
GSM491666
GSM402191
GSM402190
GSM402189
GSM402188
GSM402187
GSM402186
GSM402185
GSM402184
GSM402183
GSM402182
GSM402181
GSM402180
GSM402179
GSM402178
GSM551073
GSM551072
GSM551071
GSM551070
GSM551069
GSM551068
GSM545860
GSM545854
GSM545853
GSM545852
GSM545851
GSM545850
GSM549998
GSM549997
GSM549996
GSM549995
GSM549994
GSM549993
GSM546577
GSM546576
GSM546575
GSM546574
GSM546573
GSM546572
GSM546571
GSM546570
GSM546569
GSM546568
GSM546567
GSM546566
GSM546565
GSM546564
GSM546563
GSM546562
GSM546561
GSM546560
GSM546559
GSM546558
GSM514952
GSM514951
GSM514950
GSM514949
GSM514948
GSM514947
GSM514946
GSM514945
GSM514944
GSM514943
GSM514942
GSM514941
GSM514940
GSM514939
GSM514938
GSM514937
GSM404357
GSM404356
GSM404355
GSM404354
GSM404353
GSM404352
GSM404351
GSM542687
GSM542686
GSM542685
GSM542684
GSM542683
GSM542682
GSM542681
GSM542680
GSM542679
GSM542678
GSM542677
GSM542676
GSM542675
GSM542674
GSM542673
GSM542494
GSM542493
GSM542492
GSM542491
GSM542490
GSM542489
GSM542442
GSM542441
GSM542440
GSM542439
GSM542438
GSM542437
GSM542436
GSM542435
GSM542434
GSM542433
GSM542432
GSM542431
GSM263149
GSM263148
GSM263147
GSM263146
GSM263145
GSM263144
GSM263143
GSM263142
GSM263141
GSM537537
GSM537536
GSM537535
GSM537534
GSM347120
GSM347119
GSM347118
GSM347117
GSM347116
GSM347115
GSM347114
GSM347113
GSM347112
GSM347111
GSM347110
GSM347109
GSM389777
GSM389776
GSM389775
GSM389774
GSM389773
GSM389772
GSM389771
GSM389770
GSM389769
GSM389768
GSM389767
GSM389766
GSM507510
GSM507509
GSM507508
GSM507507
GSM507506
GSM507505
GSM507504
GSM507503
GSM507502
GSM507501
GSM507500
GSM507499
GSM507498
GSM507497
GSM507496
GSM507495
GSM507494
GSM507145
GSM507144
GSM507143
GSM507142
GSM507141
GSM507140
GSM507127
GSM507126
GSM507125
GSM507124
GSM507123
GSM507122
GSM507121
GSM507120
GSM507119
GSM507118
GSM507117
GSM507116
GSM507115
GSM507114
GSM507074
GSM507073
GSM507072
GSM507071
GSM507070
GSM507069
GSM507056
GSM507055
GSM507054
GSM507053
GSM507052
GSM507051
GSM507050
GSM507049
GSM507048
GSM507047
GSM507042
GSM507041
GSM507040
GSM507039
GSM507038
GSM507037
GSM507036
GSM507035
GSM507034
GSM507033
GSM507032
GSM507031
GSM507030
GSM507029
GSM507028
GSM507027
GSM507026
GSM507025
GSM507024
GSM507023
GSM507022
GSM507021
GSM507020
GSM507019
GSM507018
GSM507017
GSM507016
GSM507015
GSM507014
GSM507013
GSM507012
GSM499716
GSM499715
GSM499714
GSM499713
GSM499712
GSM413917
GSM413916
GSM413915
GSM290562
GSM290561
GSM290560
GSM290559
GSM290558
GSM290557
GSM350491
GSM350489
GSM350486
GSM350482
GSM349686
GSM349685
GSM349684
GSM349683
GSM349682
GSM349681
GSM489013
GSM489012
GSM489011
GSM489010
GSM489009
GSM489008
GSM489007
GSM489006
GSM489005
GSM489004
GSM489003
GSM489002
GSM476798
GSM476797
GSM476796
GSM476795
GSM476794
GSM476793
GSM476792
GSM476791
GSM476790
GSM476789
GSM476788
GSM476787
GSM526902
GSM526901
GSM526900
GSM526899
GSM526898
GSM526897
GSM434386
GSM434385
GSM434384
GSM434383
GSM434382
GSM434381
GSM413947
GSM413946
GSM413945
GSM413944
GSM413943
GSM413942
GSM413941
GSM413940
GSM413939
GSM413938
GSM413937
GSM413936
GSM516608
GSM516607
GSM516606
GSM516605
GSM516604
GSM516603
GSM516602
GSM516601
GSM516600
GSM516599
GSM516598
GSM516597
GSM516596
GSM516595
GSM463690
GSM463689
GSM463688
GSM463687
GSM463686
GSM463685
GSM463684
GSM463683
GSM455429
GSM455428
GSM455427
GSM455426
GSM455425
GSM455424
GSM455423
GSM455422
GSM513081
GSM513080
GSM513079
GSM513078
GSM513077
GSM513076
GSM513075
GSM513074
GSM513073
GSM513072
GSM513071
GSM513070
GSM513069
GSM513068
GSM513067
GSM513066
GSM513065
GSM513064
GSM344728
GSM344727
GSM344726
GSM344725
GSM344724
GSM344723
GSM436182
GSM436181
GSM436180
GSM436179
GSM436178
GSM436177
GSM436176
GSM436175
GSM436174
GSM501168
GSM501167
GSM501166
GSM501165
GSM501164
GSM501163
GSM501162
GSM501161
GSM501160
GSM501159
GSM501158
GSM501157
GSM499421
GSM499420
GSM499419
GSM499418
GSM499417
GSM499416
GSM435771
GSM435770
GSM435769
GSM435768
GSM435767
GSM435766
GSM435765
GSM435764
GSM435763
GSM435762
GSM435761
GSM435760
GSM435759
GSM435758
GSM435757
GSM435756
GSM435755
GSM435754
GSM435753
GSM435752
GSM435751
GSM435750
GSM435749
GSM435748
GSM435747
GSM435746
GSM435745
GSM435744
GSM435743
GSM435742
GSM435741
GSM435740
GSM435739
GSM435738
GSM435737
GSM435736
GSM435735
GSM435734
GSM435733
GSM435732
GSM435731
GSM435730
GSM435729
GSM435728
GSM435727
GSM435726
GSM435725
GSM435724
GSM435723
GSM435722
GSM435721
GSM435720
GSM435719
GSM435718
GSM435717
GSM435716
GSM435715
GSM435714
GSM435713
GSM435712
GSM435711
GSM435710
GSM435709
GSM435708
GSM435707
GSM435706
GSM435705
GSM435704
GSM435703
GSM435702
GSM435701
GSM435700
GSM435699
GSM435698
GSM435697
GSM435696
GSM435695
GSM435694
GSM435693
GSM435692
GSM435691
GSM435690
GSM435689
GSM435688
GSM435687
GSM435686
GSM435685
GSM435684
GSM435683
GSM435682
GSM435681
GSM435680
GSM435679
GSM435678
GSM435677
GSM435676
GSM435675
GSM435674
GSM435673
GSM359427
GSM359426
GSM359425
GSM359424
GSM359423
GSM359422
GSM359421
GSM359420
GSM359419
GSM359418
GSM359417
GSM359416
GSM487021
GSM487020
GSM487019
GSM487018
GSM487017
GSM487016
GSM477883
GSM477882
GSM477881
GSM477880
GSM477879
GSM477878
GSM477877
GSM477876
GSM477875
GSM477874
GSM477873
GSM462901
GSM462900
GSM462899
GSM462898
GSM462897
GSM462896
GSM462895
GSM462894
GSM462893
GSM462892
GSM462891
GSM462890
GSM462889
GSM462888
GSM462887
GSM462886
GSM462885
GSM462884
GSM446542
GSM446541
GSM446540
GSM446539
GSM446538
GSM446537
GSM459071
GSM459070
GSM459069
GSM459068
GSM226920
GSM226919
GSM226918
GSM226917
GSM226916
GSM226915
GSM226914
GSM226913
GSM226912
GSM226911
GSM226910
GSM226909
GSM226908
GSM226907
GSM226906
GSM226905
GSM226904
GSM226903
GSM226902
GSM226901
GSM226900
GSM226899
GSM490341
GSM490340
GSM490339
GSM490338
GSM363547
GSM363546
GSM363545
GSM363544
GSM363543
GSM363542
GSM363541
GSM363540
GSM363539
GSM363538
GSM363537
GSM361163
GSM362095
GSM362094
GSM362093
GSM362092
GSM362091
GSM362090
GSM362089
GSM362088
GSM362087
GSM362086
GSM362085
GSM362084
GSM362083
GSM362082
GSM362081
GSM362050
GSM362049
GSM362048
GSM362047
GSM362046
GSM362045
GSM362044
GSM362043
GSM362042
GSM362041
GSM362040
GSM362039
GSM362038
GSM362037
GSM362036
GSM362035
GSM362034
GSM362033
GSM362032
GSM362031
GSM362030
GSM362029
GSM362028
GSM362027
GSM362026
GSM362025
GSM362024
GSM480407
GSM480406
GSM480405
GSM480404
GSM480403
GSM480402
GSM478150
GSM478149
GSM478148
GSM478147
GSM478146
GSM478145
GSM478144
GSM478143
GSM478142
GSM478141
GSM478140
GSM478139
GSM478138
GSM478137
GSM478136
GSM478135
GSM478134
GSM478133
GSM478132
GSM478131
GSM478130
GSM478129
GSM478128
GSM478127
GSM478126
GSM478125
GSM478124
GSM478093
GSM478092
GSM478091
GSM478090
GSM478089
GSM478088
GSM478087
GSM478086
GSM478085
GSM478084
GSM478083
GSM478082
GSM478081
GSM478080
GSM478079
GSM478078
GSM478077
GSM478076
GSM478075
GSM478074
GSM478073
GSM478072
GSM478071
GSM478070
GSM478069
GSM478068
GSM478067
GSM478066
GSM478065
GSM478064
GSM478063
GSM478062
GSM478061
GSM478060
GSM478059
GSM478058
GSM478057
GSM478056
GSM478055
GSM478054
GSM478053
GSM478052
GSM478051
GSM478050
GSM478049
GSM478048
GSM478047
GSM478046
GSM478045
GSM478044
GSM478043
GSM478042
GSM478041
GSM478040
GSM478039
GSM478038
GSM478037
GSM478036
GSM478035
GSM478034
GSM478033
GSM478032
GSM478031
GSM478030
GSM478029
GSM478028
GSM478027
GSM478026
GSM478025
GSM478024
GSM478023
GSM478022
GSM478014
GSM478013
GSM478012
GSM478011
GSM478010
GSM478009
GSM478008
GSM478007
GSM478006
GSM478005
GSM478004
GSM478003
GSM478002
GSM478001
GSM478000
GSM477999
GSM477998
GSM477997
GSM477996
GSM477995
GSM477994
GSM477993
GSM477992
GSM477991
GSM477990
GSM477989
GSM477988
GSM477987
GSM477986
GSM477985
GSM477984
GSM477983
GSM477982
GSM477981
GSM477980
GSM477979
GSM477978
GSM477977
GSM477976
GSM477975
GSM477974
GSM477973
GSM477972
GSM477971
GSM477970
GSM477969
GSM477968
GSM477967
GSM477966
GSM477965
GSM477964
GSM477963
GSM477962
GSM477961
GSM477960
GSM477959
GSM477958
GSM477957
GSM477956
GSM477955
GSM477954
GSM477953
GSM477952
GSM477951
GSM477950
GSM477949
GSM477948
GSM477947
GSM477946
GSM477945
GSM477944
GSM477943
GSM477942
GSM477941
GSM477940
GSM477939
GSM477938
GSM477937
GSM477936
GSM477935
GSM477934
GSM477933
GSM477932
GSM477931
GSM477930
GSM477929
GSM477928
GSM477927
GSM477926
GSM477925
GSM477924
GSM477923
GSM477922
GSM477921
GSM477920
GSM477919
GSM477918
GSM477917
GSM477916
GSM477915
GSM477914
GSM456427
GSM456425
GSM456423
GSM477913
GSM477912
GSM477911
GSM477910
GSM477909
GSM477908
GSM477907
GSM477906
GSM477905
GSM477904
GSM477903
GSM477902
GSM477901
GSM477900
GSM477899
GSM477898
GSM477897
GSM477896
GSM477895
GSM477894
GSM477893
GSM477892
GSM477891
GSM477890
GSM477889
GSM477888
GSM477887
GSM477886
GSM477885
GSM477884
GSM477872
GSM477871
GSM477870
GSM477869
GSM477868
GSM1009037
GSM1009036
GSM1009035
GSM1009034
GSM1009033
GSM1009032
GSM1009031
GSM1009030
GSM1009029
GSM1009028
GSM1009027
GSM1009026
GSM879336
GSM879335
GSM879334
GSM879333
GSM879332
GSM879331
GSM879330
GSM879329
GSM879328
GSM879327
GSM879326
GSM879325
GSM879324
GSM879323
GSM879322
GSM879321
GSM879320
GSM879319
GSM921237
GSM921236
GSM921235
GSM921234
GSM921233
GSM921232
GSM921231
GSM921230
GSM824807
GSM824806
GSM824805
GSM824804
GSM824803
GSM824802
GSM824801
GSM824800
GSM824799
GSM824798
GSM824797
GSM824796
GSM991305
GSM991304
GSM991303
GSM991302
GSM991301
GSM991300
GSM991299
GSM991298
GSM991297
GSM991296
GSM991295
GSM991294
GSM1053038
GSM1053037
GSM1053036
GSM1053035
GSM1053034
GSM1053033
GSM1053032
GSM1053031
GSM1053030
GSM1053029
GSM1053028
GSM1053027
GSM1053026
GSM1053025
GSM1053024
GSM826553
GSM826552
GSM826551
GSM826550
GSM826549
GSM826548
GSM826547
GSM826546
GSM826545
GSM826544
GSM826543
GSM826542
GSM789686
GSM789685
GSM789684
GSM789683
GSM789682
GSM789681
GSM789680
GSM789679
GSM789678
GSM789677
GSM789676
GSM477867
GSM477866
GSM477865
GSM477864
GSM477863
GSM477862
GSM477861
GSM477860
GSM477859
GSM477858
GSM477857
GSM477855
GSM477854
GSM477853
GSM477852
GSM477851
GSM477850
GSM477849
GSM477848
GSM477847
GSM477846
GSM477845
GSM477844
GSM477843
GSM477842
GSM477841
GSM477840
GSM477839
GSM477838
GSM477837
GSM477836
GSM477835
GSM477834
GSM477833
GSM477832
GSM477831
GSM477830
GSM477829
GSM477828
GSM477827
GSM477826
GSM477825
GSM477824
GSM477823
GSM477822
GSM477821
GSM477820
GSM477812
GSM477811
GSM477810
GSM477809
GSM477808
GSM477807
GSM392503
GSM392502
GSM392501
GSM392500
GSM392499
GSM392498
GSM392497
GSM392496
GSM392495
GSM392494
GSM392493
GSM392492
GSM392491
GSM392490
GSM392489
GSM392488
GSM356828
GSM356827
GSM356826
GSM356825
GSM356824
GSM356823
GSM343435
GSM343434
GSM343433
GSM343432
GSM343431
GSM343430
GSM343429
GSM343428
GSM343427
GSM343426
GSM343425
GSM343424
GSM343423
GSM343422
GSM343421
GSM343420
GSM343419
GSM343418
GSM343417
GSM343416
GSM424135
GSM424134
GSM424133
GSM424132
GSM424131
GSM424130
GSM424129
GSM424128
GSM466638
GSM466637
GSM466636
GSM466635
GSM466634
GSM466633
GSM466632
GSM466631
GSM466630
GSM466629
GSM466628
GSM466627
GSM466626
GSM466625
GSM466624
GSM466623
GSM466622
GSM466621
GSM473665
GSM473664
GSM473663
GSM473662
GSM473661
GSM473660
GSM473659
GSM473658
GSM473657
GSM473656
GSM473655
GSM473654
GSM426505
GSM426504
GSM426503
GSM426502
GSM426501
GSM426500
GSM426499
GSM426498
GSM426497
GSM350869
GSM350868
GSM350867
GSM350866
GSM350865
GSM350864
GSM350863
GSM350862
GSM350861
GSM350860
GSM350859
GSM350858
GSM350857
GSM350856
GSM350855
GSM350806
GSM350805
GSM350804
GSM350803
GSM350802
GSM350801
GSM350800
GSM350799
GSM469862
GSM469861
GSM469860
GSM469859
GSM469858
GSM469857
GSM469856
GSM469855
GSM469854
GSM469853
GSM469852
GSM469851
GSM469850
GSM469849
GSM469848
GSM469847
GSM469846
GSM469845
GSM469844
GSM469843
GSM469842
GSM469841
GSM469840
GSM469839
GSM469838
GSM469837
GSM469836
GSM469835
GSM469834
GSM469833
GSM469832
GSM469831
GSM469830
GSM469829
GSM469828
GSM469827
GSM469826
GSM469825
GSM469824
GSM469823
GSM469822
GSM469821
GSM469820
GSM469819
GSM469818
GSM469817
GSM469816
GSM469815
GSM469814
GSM469813
GSM469812
GSM469811
GSM469810
GSM469809
GSM469808
GSM469807
GSM469806
GSM469805
GSM469804
GSM469803
GSM469802
GSM469801
GSM469800
GSM469799
GSM469798
GSM469797
GSM469796
GSM469795
GSM469794
GSM469793
GSM469792
GSM469791
GSM469790
GSM469789
GSM469788
GSM469787
GSM469786
GSM469785
GSM469784
GSM469783
GSM469782
GSM469781
GSM469780
GSM469779
GSM469778
GSM469777
GSM469776
GSM469775
GSM469774
GSM469773
GSM469772
GSM469771
GSM469770
GSM469769
GSM469768
GSM469767
GSM469766
GSM469765
GSM469764
GSM469763
GSM469762
GSM469761
GSM469760
GSM469759
GSM469758
GSM469757
GSM469756
GSM469755
GSM469754
GSM469753
GSM469752
GSM469751
GSM469750
GSM469749
GSM469748
GSM469731
GSM469730
GSM469729
GSM469728
GSM469727
GSM469726
GSM469725
GSM469724
GSM469723
GSM469722
GSM469721
GSM469720
GSM469719
GSM469718
GSM469717
GSM469716
GSM469715
GSM469714
GSM469713
GSM469712
GSM469711
GSM469710
GSM469709
GSM469708
GSM469707
GSM469706
GSM469705
GSM469704
GSM469703
GSM469702
GSM469701
GSM469700
GSM469699
GSM469698
GSM469697
GSM469696
GSM469695
GSM469694
GSM469693
GSM469692
GSM469691
GSM469690
GSM469689
GSM469688
GSM469687
GSM469686
GSM469685
GSM469684
GSM469683
GSM469682
GSM469681
GSM469680
GSM469679
GSM469678
GSM469677
GSM469676
GSM469675
GSM469674
GSM469673
GSM469672
GSM469671
GSM469670
GSM469669
GSM469668
GSM469667
GSM469666
GSM469665
GSM469664
GSM469663
GSM469662
GSM469661
GSM469660
GSM469659
GSM469658
GSM469657
GSM469656
GSM469655
GSM469654
GSM469653
GSM469652
GSM469651
GSM469650
GSM469649
GSM469418
GSM469417
GSM469416
GSM469415
GSM469414
GSM469413
GSM126991
GSM126990
GSM126248
GSM126247
GSM126246
GSM126244
GSM445727
GSM445726
GSM445725
GSM445724
GSM445723
GSM445722
GSM445721
GSM445720
GSM445719
GSM445718
GSM445717
GSM445716
GSM445715
GSM445714
GSM445713
GSM445712
GSM445711
GSM445710
GSM436331
GSM436330
GSM436329
GSM436328
GSM436326
GSM436325
GSM436324
GSM436323
GSM436322
GSM436321
GSM436320
GSM436319
GSM436318
GSM436317
GSM436316
GSM436315
GSM436314
GSM435977
GSM435976
GSM435975
GSM435974
GSM435973
GSM435972
GSM435971
GSM435970
GSM435969
GSM435968
GSM435967
GSM435966
GSM435965
GSM435964
GSM435963
GSM435962
GSM435961
GSM435960
GSM435959
GSM435958
GSM435957
GSM435956
GSM435955
GSM435954
GSM435953
GSM435952
GSM435951
GSM435950
GSM435949
GSM435948
GSM435947
GSM435946
GSM435945
GSM435944
GSM435943
GSM435942
GSM435941
GSM435940
GSM435939
GSM435938
GSM435937
GSM435936
GSM435935
GSM435934
GSM435933
GSM429332
GSM429331
GSM429330
GSM429329
GSM429328
GSM429327
GSM429326
GSM429325
GSM429324
GSM429320
GSM429319
GSM429318
GSM429317
GSM429316
GSM429315
GSM429114
GSM429112
GSM428925
GSM428923
GSM428922
GSM428921
GSM428920
GSM428919
GSM428918
GSM428917
GSM428916
GSM428915
GSM428914
GSM428913
GSM429981
GSM429980
GSM429961
GSM429956
GSM427808
GSM427807
GSM427806
GSM427804
GSM427801
GSM427799
GSM427798
GSM427797
GSM427796
GSM427795
GSM427055
GSM427052
GSM428912
GSM463014
GSM463013
GSM463012
GSM463011
GSM284054
GSM284053
GSM284052
GSM284051
GSM362246
GSM362245
GSM362244
GSM362243
GSM362242
GSM362241
GSM362240
GSM362239
GSM362238
GSM362237
GSM362236
GSM362235
GSM362234
GSM362233
GSM362232
GSM362231
GSM362230
GSM362229
GSM362228
GSM362227
GSM362226
GSM362225
GSM362224
GSM362223
GSM362222
GSM362221
GSM362220
GSM362219
GSM362218
GSM362217
GSM362216
GSM362215
GSM362214
GSM362213
GSM362212
GSM362211
GSM362210
GSM362209
GSM362208
GSM362207
GSM362206
GSM362205
GSM362204
GSM362203
GSM362202
GSM362201
GSM362200
GSM362199
GSM362198
GSM362197
GSM362196
GSM362195
GSM362194
GSM362193
GSM362192
GSM362191
GSM362190
GSM362189
GSM362188
GSM362187
GSM362186
GSM362185
GSM362184
GSM362183
GSM362182
GSM362181
GSM362180
GSM362179
GSM362178
GSM362177
GSM362176
GSM362175
GSM362174
GSM362173
GSM362172
GSM362171
GSM362170
GSM362169
GSM362168
GSM361995
GSM361994
GSM361993
GSM361992
GSM361991
GSM361990
GSM361989
GSM361988
GSM361987
GSM361986
GSM361985
GSM361984
GSM361983
GSM361982
GSM361981
GSM361980
GSM361979
GSM361978
GSM361977
GSM361976
GSM457033
GSM457032
GSM457031
GSM457030
GSM457029
GSM457028
GSM377728
GSM377727
GSM377726
GSM377725
GSM377724
GSM377723
GSM377722
GSM377721
GSM377720
GSM377719
GSM377718
GSM377717
GSM455527
GSM455526
GSM455525
GSM455524
GSM455523
GSM455522
GSM455521
GSM455520
GSM455519
GSM452724
GSM452723
GSM452722
GSM452711
GSM452710
GSM452709
GSM452708
GSM452707
GSM452706
GSM452705
GSM452703
GSM452702
GSM453788
GSM453787
GSM453786
GSM453785
GSM453784
GSM453783
GSM453782
GSM453781
GSM453780
GSM453779
GSM453778
GSM453777
GSM453776
GSM453775
GSM453774
GSM439775
GSM439774
GSM439773
GSM439772
GSM439771
GSM439770
GSM439769
GSM439768
GSM439767
GSM451849
GSM451848
GSM451847
GSM451846
GSM451845
GSM451844
GSM451843
GSM451842
GSM451841
GSM451840
GSM451839
GSM451838
GSM451837
GSM451836
GSM451835
GSM451834
GSM451833
GSM451832
GSM451831
GSM451830
GSM451829
GSM451828
GSM451827
GSM451826
GSM324020
GSM324019
GSM324018
GSM315984
GSM315983
GSM315982
GSM315981
GSM315973
GSM315972
GSM315971
GSM315970
GSM444752
GSM444751
GSM444750
GSM444749
GSM444748
GSM444747
GSM444746
GSM444745
GSM444744
GSM444743
GSM444742
GSM444741
GSM444740
GSM444739
GSM444738
GSM444737
GSM380448
GSM380447
GSM380446
GSM380445
GSM380444
GSM380443
GSM380442
GSM380441
GSM380440
GSM380439
GSM380438
GSM380437
GSM380436
GSM380435
GSM380434
GSM380433
GSM409688
GSM409687
GSM409686
GSM409685
GSM409684
GSM409683
GSM409682
GSM409681
GSM409680
GSM409679
GSM409678
GSM409677
GSM409676
GSM409675
GSM409674
GSM409673
GSM409672
GSM409671
GSM441065
GSM441064
GSM441063
GSM441062
GSM309556
GSM309554
GSM309553
GSM227500
GSM227499
GSM227498
GSM227497
GSM227496
GSM227495
GSM227494
GSM227493
GSM227484
GSM433648
GSM433647
GSM433646
GSM433645
GSM433644
GSM433643
GSM433642
GSM433641
GSM433640
GSM433639
GSM433638
GSM433637
GSM433636
GSM433635
GSM433634
GSM226333
GSM226332
GSM226331
GSM226330
GSM226329
GSM226328
GSM226327
GSM226326
GSM226325
GSM226324
GSM226323
GSM226322
GSM226319
GSM226318
GSM226317
GSM226316
GSM226315
GSM226314
GSM225914
GSM225913
GSM225912
GSM225911
GSM225910
GSM225909
GSM225908
GSM225907
GSM225906
GSM225905
GSM225904
GSM225903
GSM424791
GSM424790
GSM424789
GSM424788
GSM424787
GSM424786
GSM424785
GSM424784
GSM424783
GSM424782
GSM424781
GSM424780
GSM422673
GSM390168
GSM390167
GSM390166
GSM390165
GSM390164
GSM390163
GSM390162
GSM390161
GSM402177
GSM402176
GSM402175
GSM402174
GSM402173
GSM402172
GSM402171
GSM402170
GSM414637
GSM414636
GSM414635
GSM414634
GSM414633
GSM414632
GSM413914
GSM413913
GSM413912
GSM413911
GSM413910
GSM413909
GSM413908
GSM413907
GSM399911
GSM399910
GSM399909
GSM399908
GSM399907
GSM399906
GSM399905
GSM399904
GSM399903
GSM399902
GSM399901
GSM399900
GSM399899
GSM399898
GSM399897
GSM399896
GSM399895
GSM407347
GSM407346
GSM407344
GSM407343
GSM407342
GSM407341
GSM407340
GSM407339
GSM298498
GSM298495
GSM298493
GSM298490
GSM298488
GSM298486
GSM298482
GSM298481
GSM298479
GSM298476
GSM298475
GSM298474
GSM298473
GSM298472
GSM298471
GSM298470
GSM298429
GSM298428
GSM298427
GSM298425
GSM298424
GSM298420
GSM298418
GSM298415
GSM392694
GSM392693
GSM392692
GSM392691
GSM392690
GSM392689
GSM392688
GSM392687
GSM392686
GSM392685
GSM392684
GSM392683
GSM392560
GSM392275
GSM392274
GSM392273
GSM392263
GSM392180
GSM392015
GSM392014
GSM392013
GSM392012
GSM392011
GSM391667
GSM391666
GSM391665
GSM391664
GSM391663
GSM391662
GSM391661
GSM391660
GSM389471
GSM389470
GSM389469
GSM389468
GSM389467
GSM389466
GSM389465
GSM389293
GSM389292
GSM389291
GSM389253
GSM337902
GSM337901
GSM342149
GSM342148
GSM342147
GSM342146
GSM342145
GSM342144
GSM342143
GSM342142
GSM342141
GSM342140
GSM342139
GSM342138
GSM342137
GSM342136
GSM342135
GSM388816
GSM388815
GSM388814
GSM388813
GSM388812
GSM388811
GSM388810
GSM318846
GSM318845
GSM318844
GSM318843
GSM318842
GSM318841
GSM318838
GSM318836
GSM318834
GSM318832
GSM318831
GSM318830
GSM347995
GSM347993
GSM347992
GSM347990
GSM347989
GSM347988
GSM347987
GSM347985
GSM347984
GSM347983
GSM347967
GSM347966
GSM347965
GSM789675
GSM789674
GSM789673
GSM789672
GSM789671
GSM789670
GSM789669
GSM789668
GSM789667
GSM789666
GSM911868
GSM911867
GSM911866
GSM911865
GSM911864
GSM911863
GSM911862
GSM911861
GSM911860
GSM911859
GSM918089
GSM918088
GSM918087
GSM918086
GSM918085
GSM918084
GSM918083
GSM918082
GSM918081
GSM918080
GSM918079
GSM918078
GSM918077
GSM918076
GSM918075
GSM918074
GSM918073
GSM918072
GSM1039630
GSM1039629
GSM1039628
GSM1039627
GSM1039626
GSM1039625
GSM1039624
GSM1039623
GSM1039622
GSM1039621
GSM1039620
GSM1039619
GSM668182
GSM668181
GSM668180
GSM668179
GSM668178
GSM668177
GSM1026947
GSM1026946
GSM1033604
GSM1033603
GSM1033602
GSM1033601
GSM1033600
GSM1031718
GSM1031717
GSM1031716
GSM1031715
GSM1031714
GSM1031713
GSM1028184
GSM1028183
GSM1028182
GSM1028181
GSM1028180
GSM1028179
GSM1028178
GSM1028177
GSM1028176
GSM1028175
GSM1028174
GSM1028173
GSM1003643
GSM1003642
GSM1003641
GSM1003640
GSM1003639
GSM1003638
GSM1018840
GSM1018839
GSM1018838
GSM1018837
GSM1018836
GSM1018835
GSM1018834
GSM1018833
GSM1018832
GSM984742
GSM984741
GSM984740
GSM984739
GSM347964
GSM347963
GSM347962
GSM347961
GSM347960
GSM347959
GSM347958
GSM347957
GSM347946
GSM347945
GSM347944
GSM379263
GSM379262
GSM379261
GSM379260
GSM379259
GSM379258
GSM379257
GSM379256
GSM379255
GSM379254
GSM379253
GSM379252
GSM379251
GSM379250
GSM379249
GSM379248
GSM379247
GSM379246
GSM379245
GSM379244
GSM379243
GSM379242
GSM378746
GSM378745
GSM378744
GSM378743
GSM378742
GSM378741
GSM378740
GSM378739
GSM378738
GSM378737
GSM378736
GSM378735
GSM378734
GSM378733
GSM378660
GSM378659
GSM378658
GSM378657
GSM378656
GSM378655
GSM378654
GSM378653
GSM378652
GSM378651
GSM378650
GSM378649
GSM378648
GSM378647
GSM378646
GSM378645
GSM356570
GSM356569
GSM356568
GSM356567
GSM356566
GSM356565
GSM356564
GSM315474
GSM315473
GSM315472
GSM315471
GSM315470
GSM315469
GSM315468
GSM315467
GSM315466
GSM315465
GSM315464
GSM315463
GSM315462
GSM315461
GSM315460
GSM315459
GSM315458
GSM315457
GSM315456
GSM315455
GSM315454
GSM315453
GSM313029
GSM313028
GSM313027
GSM313026
GSM346846
GSM346845
GSM346844
GSM346843
GSM346842
GSM346841
GSM346840
GSM346839
GSM346838
GSM346837
GSM346836
GSM346835
GSM346834
GSM346833
GSM346832
GSM346831
GSM346830
GSM346829
GSM373536
GSM373535
GSM373534
GSM373533
GSM373532
GSM368746
GSM368745
GSM368744
GSM368743
GSM368742
GSM368741
GSM345352
GSM345351
GSM345350
GSM345349
GSM345348
GSM345347
GSM345346
GSM345345
GSM345344
GSM345343
GSM345342
GSM345341
GSM345340
GSM345339
GSM345338
GSM345337
GSM345336
GSM345335
GSM345334
GSM345333
GSM345332
GSM345331
GSM345330
GSM345329
GSM345328
GSM345327
GSM345326
GSM345325
GSM345324
GSM345323
GSM345322
GSM345321
GSM345320
GSM345319
GSM345318
GSM345317
GSM345316
GSM345315
GSM345314
GSM345313
GSM345312
GSM345311
GSM345310
GSM345309
GSM345308
GSM345307
GSM345306
GSM345305
GSM345304
GSM345303
GSM345302
GSM345301
GSM345300
GSM345299
GSM345298
GSM345297
GSM289642
GSM289641
GSM289640
GSM289639
GSM289638
GSM289637
GSM360242
GSM360241
GSM360240
GSM360239
GSM360238
GSM360237
GSM360236
GSM360235
GSM360234
GSM360233
GSM360232
GSM360231
GSM360230
GSM360229
GSM360228
GSM360227
GSM360226
GSM360225
GSM353596
GSM353595
GSM353594
GSM353593
GSM353592
GSM353591
GSM353590
GSM353589
GSM353588
GSM353587
GSM353586
GSM353585
GSM353584
GSM297843
GSM297842
GSM297841
GSM297840
GSM297839
GSM297838
GSM297837
GSM297836
GSM297835
GSM297834
GSM297833
GSM297832
GSM297831
GSM297830
GSM297829
GSM297828
GSM297827
GSM297826
GSM297825
GSM297824
GSM297823
GSM297822
GSM226281
GSM226280
GSM226279
GSM226278
GSM226277
GSM226276
GSM226275
GSM226274
GSM226273
GSM226272
GSM226271
GSM226270
GSM226269
GSM226268
GSM226267
GSM339548
GSM339547
GSM339546
GSM339545
GSM339544
GSM339543
GSM339542
GSM339541
GSM339540
GSM339539
GSM319210
GSM319209
GSM319208
GSM319207
GSM319206
GSM319205
GSM319204
GSM319203
GSM319202
GSM319201
GSM319196
GSM318536
GSM252692
GSM252691
GSM252690
GSM252689
GSM252688
GSM252687
GSM252686
GSM252685
GSM252684
GSM252683
GSM252682
GSM252681
GSM252680
GSM252679
GSM252678
GSM252677
GSM252676
GSM252675
GSM252674
GSM252673
GSM252672
GSM252671
GSM252670
GSM252669
GSM252668
GSM252667
GSM252666
GSM252665
GSM252664
GSM252663
GSM239245
GSM239241
GSM239239
GSM239236
GSM297897
GSM297896
GSM297895
GSM297894
GSM272112
GSM272111
GSM272110
GSM272109
GSM272108
GSM272107
GSM258797
GSM258796
GSM258795
GSM258794
GSM258793
GSM258792
GSM268252
GSM268251
GSM268250
GSM268249
GSM268248
GSM268247
GSM268246
GSM268245
GSM323092
GSM323091
GSM323090
GSM323089
GSM323088
GSM323087
GSM323086
GSM323085
GSM323084
GSM323083
GSM323082
GSM323081
GSM323080
GSM323079
GSM323078
GSM323077
GSM323076
GSM323075
GSM322556
GSM322555
GSM322554
GSM322553
GSM322552
GSM322551
GSM322550
GSM322549
GSM322548
GSM322547
GSM322546
GSM322545
GSM318627
GSM318626
GSM318625
GSM318624
GSM318623
GSM318622
GSM318621
GSM318620
GSM318619
GSM318618
GSM318345
GSM318332
GSM318331
GSM318330
GSM317624
GSM317619
GSM317526
GSM317519
GSM154508
GSM154507
GSM154506
GSM154505
GSM154504
GSM154503
GSM291128
GSM291124
GSM291119
GSM291118
GSM291114
GSM291113
GSM291112
GSM291108
GSM291101
GSM291099
GSM291098
GSM291024
GSM291023
GSM291021
GSM291020
GSM291019
GSM290828
GSM290827
GSM290825
GSM290762
GSM290761
GSM290760
GSM290759
GSM290758
GSM290757
GSM290756
GSM290755
GSM290753
GSM269833
GSM269832
GSM269831
GSM269830
GSM269829
GSM269828
GSM269827
GSM269826
GSM269825
GSM269824
GSM269823
GSM269822
GSM269821
GSM269820
GSM269819
GSM269818
GSM269817
GSM269816
GSM269815
GSM269814
GSM269813
GSM269812
GSM258004
GSM258003
GSM258002
GSM258001
GSM258000
GSM257998
GSM250993
GSM250992
GSM250991
GSM250990
GSM250989
GSM250988
GSM250987
GSM250986
GSM250985
GSM250984
GSM250983
GSM250982
GSM250975
GSM250974
GSM250973
GSM250972
GSM250971
GSM250970
GSM250969
GSM250968
GSM250967
GSM250966
GSM250965
GSM250964
GSM250963
GSM250962
GSM250961
GSM250960
GSM250959
GSM250958
GSM250957
GSM250956
GSM250955
GSM250954
GSM250953
GSM250952
GSM250951
GSM250950
GSM250949
GSM250948
GSM250947
GSM250946
GSM250945
GSM250944
GSM197146
GSM197145
GSM197144
GSM197143
GSM197142
GSM197141
GSM197140
GSM197139
GSM197138
GSM197137
GSM197136
GSM197135
GSM305284
GSM305283
GSM305282
GSM305281
GSM277235
GSM277234
GSM277233
GSM277232
GSM311296
GSM311295
GSM311294
GSM311293
GSM311292
GSM311291
GSM311290
GSM311289
GSM311288
GSM311287
GSM311286
GSM311285
GSM311284
GSM311283
GSM311282
GSM311281
GSM311280
GSM311279
GSM311278
GSM311277
GSM311276
GSM311275
GSM311274
GSM311273
GSM311271
GSM311270
GSM311269
GSM311268
GSM311267
GSM311266
GSM280601
GSM280600
GSM280599
GSM280598
GSM245495
GSM245494
GSM245493
GSM245492
GSM245491
GSM245490
GSM245489
GSM245488
GSM245487
GSM245486
GSM245485
GSM245484
GSM245483
GSM245482
GSM245481
GSM245480
GSM245479
GSM245478
GSM245477
GSM245476
GSM245475
GSM245474
GSM245473
GSM245472
GSM245471
GSM245470
GSM245469
GSM245468
GSM245467
GSM245466
GSM304032
GSM304031
GSM304029
GSM304028
GSM299410
GSM299409
GSM299408
GSM299341
GSM299340
GSM299339
GSM299338
GSM299337
GSM299336
GSM299335
GSM299334
GSM299333
GSM299332
GSM299331
GSM299330
GSM299329
GSM299328
GSM299327
GSM299326
GSM299325
GSM299324
GSM299323
GSM299322
GSM299321
GSM282703
GSM282702
GSM282701
GSM282700
GSM282699
GSM282698
GSM282697
GSM282696
GSM282695
GSM282694
GSM282693
GSM297398
GSM297397
GSM297396
GSM297395
GSM297394
GSM297393
GSM297392
GSM297391
GSM297390
GSM297389
GSM297388
GSM297387
GSM297386
GSM297385
GSM297384
GSM297383
GSM297382
GSM297381
GSM297380
GSM297379
GSM271082
GSM271080
GSM271079
GSM271074
GSM271073
GSM271072
GSM271071
GSM271066
GSM271065
GSM271060
GSM271059
GSM271058
GSM271057
GSM271056
GSM271055
GSM271054
GSM271053
GSM271040
GSM270870
GSM270868
GSM270866
GSM270865
GSM270853
GSM270814
GSM292081
GSM292080
GSM292079
GSM292078
GSM292077
GSM292076
GSM253201
GSM253200
GSM253199
GSM253198
GSM253197
GSM253196
GSM253195
GSM253194
GSM253193
GSM246375
GSM246374
GSM246373
GSM246372
GSM246371
GSM246370
GSM246369
GSM269499
GSM269498
GSM269497
GSM269496
GSM269495
GSM269494
GSM269493
GSM269492
GSM269491
GSM269490
GSM269489
GSM269488
GSM269487
GSM269486
GSM269485
GSM269484
GSM269483
GSM269482
GSM269478
GSM269477
GSM269475
GSM268010
GSM268009
GSM268008
GSM242732
GSM230428
GSM230427
GSM230348
GSM158706
GSM158705
GSM158704
GSM158703
GSM158702
GSM158701
GSM284398
GSM284397
GSM284396
GSM284395
GSM284394
GSM284393
GSM284392
GSM284391
GSM284390
GSM284389
GSM284388
GSM284387
GSM284386
GSM284385
GSM284384
GSM266677
GSM266676
GSM266675
GSM266674
GSM266673
GSM266672
GSM266671
GSM266670
GSM266669
GSM266668
GSM266667
GSM266666
GSM266665
GSM266664
GSM266663
GSM266662
GSM265474
GSM265473
GSM265472
GSM265471
GSM265470
GSM265469
GSM265468
GSM265467
GSM265466
GSM265465
GSM265464
GSM265463
GSM265462
GSM265461
GSM265433
GSM265432
GSM265431
GSM265430
GSM265429
GSM265428
GSM265427
GSM265426
GSM265425
GSM265424
GSM265423
GSM265422
GSM265421
GSM265420
GSM265419
GSM265418
GSM265416
GSM265415
GSM265414
GSM265413
GSM265412
GSM265411
GSM245927
GSM245926
GSM245925
GSM245924
GSM245923
GSM245922
GSM245921
GSM245920
GSM245919
GSM245918
GSM245917
GSM245916
GSM245915
GSM245914
GSM245913
GSM245912
GSM245911
GSM245910
GSM218298
GSM218297
GSM218296
GSM218295
GSM218294
GSM218293
GSM218292
GSM218291
GSM218290
GSM218289
GSM218288
GSM218287
GSM218286
GSM218285
GSM218284
GSM218283
GSM184936
GSM184935
GSM184934
GSM184933
GSM184932
GSM184931
GSM184930
GSM184929
GSM184928
GSM184927
GSM184926
GSM184925
GSM184924
GSM184923
GSM184922
GSM184921
GSM184920
GSM184919
GSM184918
GSM184917
GSM184916
GSM184915
GSM184914
GSM184913
GSM184912
GSM184911
GSM184910
GSM184909
GSM184908
GSM184907
GSM184906
GSM184905
GSM184904
GSM184903
GSM184902
GSM184901
GSM184900
GSM184899
GSM184898
GSM184897
GSM184896
GSM184895
GSM184894
GSM184893
GSM184892
GSM184891
GSM184890
GSM184889
GSM184846
GSM184845
GSM184844
GSM184843
GSM184842
GSM184841
GSM184840
GSM184839
GSM184838
GSM184837
GSM184836
GSM184835
GSM184834
GSM184833
GSM184832
GSM184831
GSM184635
GSM184634
GSM184633
GSM184632
GSM88057
GSM88056
GSM88055
GSM88051
GSM88050
GSM88049
GSM247642
GSM247641
GSM247640
GSM247639
GSM247638
GSM247637
GSM247636
GSM247635
GSM247634
GSM247633
GSM247632
GSM247631
GSM247630
GSM247629
GSM247627
GSM247625
GSM247624
GSM247623
GSM206285
GSM206284
GSM206283
GSM206282
GSM206281
GSM206280
GSM206279
GSM206278
GSM206277
GSM206276
GSM206275
GSM206274
GSM275643
GSM275642
GSM275641
GSM275639
GSM275638
GSM275637
GSM272992
GSM272991
GSM272990
GSM272989
GSM272988
GSM272987
GSM272986
GSM272985
GSM244459
GSM244458
GSM244457
GSM244456
GSM244455
GSM244454
GSM244453
GSM244452
GSM244451
GSM244450
GSM244449
GSM244448
GSM244447
GSM244446
GSM244445
GSM244444
GSM244443
GSM244442
GSM266822
GSM266821
GSM266820
GSM266819
GSM266818
GSM266817
GSM265869
GSM265868
GSM265867
GSM265866
GSM265865
GSM265864
GSM265863
GSM265862
GSM265861
GSM265860
GSM265859
GSM265858
GSM265857
GSM265856
GSM265855
GSM265854
GSM265853
GSM265852
GSM265851
GSM265850
GSM265849
GSM265848
GSM265847
GSM265846
GSM265539
GSM265538
GSM265537
GSM265536
GSM265535
GSM265534
GSM265533
GSM265532
GSM265531
GSM265530
GSM253166
GSM253165
GSM253164
GSM253163
GSM253162
GSM253161
GSM253160
GSM253159
GSM253158
GSM253157
GSM253156
GSM984738
GSM984737
GSM984736
GSM984735
GSM984734
GSM984733
GSM984732
GSM984731
GSM984730
GSM984729
GSM984728
GSM984727
GSM984726
GSM984725
GSM984724
GSM984723
GSM984722
GSM984721
GSM984720
GSM984719
GSM959162
GSM959161
GSM959160
GSM959159
GSM959158
GSM959157
GSM959156
GSM959155
GSM959154
GSM959153
GSM959152
GSM959151
GSM959150
GSM959149
GSM959148
GSM959147
GSM959146
GSM959145
GSM959144
GSM959143
GSM959142
GSM959141
GSM959140
GSM959139
GSM959138
GSM959137
GSM959136
GSM959135
GSM959134
GSM959133
GSM959132
GSM959131
GSM959130
GSM959129
GSM959128
GSM959127
GSM1008529
GSM1008528
GSM1008527
GSM1008526
GSM889584
GSM889583
GSM889582
GSM889581
GSM889580
GSM889579
GSM889578
GSM889577
GSM889576
GSM889575
GSM889574
GSM889573
GSM889572
GSM889571
GSM889570
GSM889569
GSM889568
GSM889567
GSM901086
GSM901085
GSM901084
GSM901083
GSM901082
GSM901081
GSM901080
GSM901079
GSM901078
GSM901077
GSM901076
GSM901075
GSM901074
GSM901073
GSM901072
GSM901071
GSM901070
GSM901069
GSM996960
GSM996959
GSM996958
GSM996957
GSM253155
GSM253154
GSM253153
GSM264766
GSM264765
GSM264764
GSM264763
GSM264762
GSM264761
GSM260958
GSM260957
GSM260956
GSM260955
GSM260953
GSM260884
GSM260883
GSM260882
GSM260881
GSM260880
GSM260879
GSM260878
GSM253652
GSM253651
GSM253650
GSM253649
GSM253648
GSM253647
GSM253646
GSM253645
GSM176880
GSM176879
GSM176878
GSM176876
GSM157149
GSM157148
GSM157147
GSM157146
GSM157145
GSM157144
GSM218596
GSM218595
GSM218594
GSM218593
GSM218592
GSM218591
GSM218590
GSM218589
GSM218588
GSM218587
GSM218586
GSM218585
GSM184561
GSM184560
GSM184559
GSM184557
GSM184556
GSM184555
GSM184553
GSM184552
GSM184551
GSM184545
GSM184544
GSM184543
GSM184539
GSM184538
GSM184537
GSM184536
GSM184535
GSM184534
GSM184533
GSM184532
GSM184531
GSM184530
GSM184529
GSM184528
GSM184527
GSM184526
GSM184525
GSM184524
GSM184523
GSM184522
GSM184521
GSM184520
GSM184519
GSM184518
GSM184517
GSM184516
GSM184511
GSM184510
GSM184509
GSM184508
GSM184507
GSM184506
GSM184505
GSM184504
GSM184503
GSM184502
GSM184501
GSM184500
GSM184499
GSM184498
GSM184497
GSM184496
GSM184495
GSM184494
GSM184493
GSM184492
GSM184491
GSM184490
GSM184489
GSM184488
GSM184487
GSM184486
GSM184485
GSM184484
GSM184483
GSM184482
GSM184481
GSM184480
GSM184479
GSM184478
GSM184477
GSM184476
GSM245719
GSM245718
GSM245717
GSM245716
GSM245715
GSM245714
GSM245713
GSM245712
GSM245711
GSM245710
GSM245709
GSM245708
GSM245707
GSM245706
GSM245705
GSM245704
GSM245703
GSM245702
GSM245701
GSM245700
GSM245699
GSM245698
GSM245697
GSM245696
GSM245695
GSM245694
GSM245693
GSM245692
GSM245691
GSM245690
GSM245689
GSM245688
GSM245687
GSM245686
GSM245685
GSM245684
GSM245683
GSM245682
GSM245681
GSM245680
GSM245679
GSM245678
GSM245677
GSM245676
GSM245675
GSM245674
GSM245673
GSM245672
GSM161536
GSM161535
GSM161534
GSM161533
GSM232890
GSM232889
GSM232888
GSM232887
GSM232886
GSM232885
GSM232884
GSM232883
GSM232882
GSM232881
GSM152145
GSM152144
GSM152143
GSM152142
GSM152141
GSM152140
GSM152139
GSM152138
GSM152137
GSM152136
GSM152135
GSM152134
GSM245256
GSM245255
GSM245254
GSM245253
GSM245252
GSM245251
GSM245238
GSM245237
GSM245236
GSM216981
GSM216973
GSM216969
GSM216966
GSM216964
GSM216962
GSM216960
GSM216958
GSM216953
GSM216951
GSM216949
GSM216947
GSM216945
GSM216943
GSM216938
GSM216934
GSM216906
GSM216904
GSM216901
GSM216899
GSM216896
GSM216895
GSM216893
GSM216888
GSM242964
GSM242963
GSM242962
GSM242961
GSM242960
GSM242959
GSM242958
GSM242957
GSM242956
GSM242955
GSM242954
GSM242953
GSM226554
GSM226553
GSM226552
GSM226551
GSM226550
GSM226549
GSM226548
GSM226547
GSM226546
GSM226545
GSM226544
GSM226543
GSM226542
GSM226541
GSM226540
GSM226539
GSM226538
GSM226537
GSM226536
GSM226535
GSM226534
GSM226533
GSM226532
GSM226531
GSM226530
GSM226529
GSM226528
GSM226527
GSM226526
GSM226525
GSM226524
GSM226523
GSM226522
GSM239254
GSM239253
GSM239252
GSM239251
GSM217174
GSM217170
GSM217165
GSM217153
GSM237295
GSM237294
GSM237293
GSM237292
GSM237283
GSM237282
GSM237281
GSM237280
GSM231204
GSM231203
GSM231202
GSM231201
GSM231200
GSM231199
GSM231198
GSM231197
GSM231196
GSM231195
GSM231194
GSM231193
GSM227629
GSM227628
GSM227627
GSM227626
GSM227625
GSM227624
GSM227623
GSM227622
GSM227621
GSM227620
GSM227619
GSM227618
GSM227617
GSM227616
GSM227615
GSM227614
GSM227613
GSM227612
GSM227611
GSM227610
GSM227609
GSM135554
GSM135553
GSM135552
GSM135551
GSM135550
GSM135549
GSM205185
GSM205160
GSM205159
GSM205156
GSM204069
GSM204026
GSM207297
GSM207296
GSM207295
GSM207294
GSM207293
GSM207292
GSM207291
GSM207290
GSM207289
GSM207288
GSM207287
GSM207286
GSM179978
GSM179977
GSM179976
GSM179975
GSM179974
GSM179973
GSM179972
GSM179971
GSM179970
GSM179969
GSM179967
GSM179963
GSM179961
GSM179960
GSM179959
GSM179958
GSM205435
GSM205432
GSM205430
GSM205428
GSM205426
GSM205364
GSM159326
GSM159321
GSM159304
GSM159302
GSM159301
GSM159300
GSM159299
GSM159298
GSM159291
GSM159273
GSM158681
GSM158680
GSM173651
GSM173649
GSM173648
GSM173629
GSM173628
GSM173626
GSM173624
GSM173623
GSM173621
GSM189178
GSM189177
GSM189176
GSM189175
GSM189174
GSM189173
GSM189172
GSM189171
GSM189170
GSM189165
GSM189164
GSM189163
GSM189124
GSM189123
GSM189122
GSM189121
GSM189120
GSM189119
GSM189118
GSM189117
GSM189116
GSM189114
GSM189112
GSM189111
GSM189110
GSM189109
GSM189108
GSM189107
GSM189106
GSM189105
GSM189104
GSM189103
GSM189102
GSM189101
GSM189100
GSM189099
GSM189097
GSM189096
GSM187418
GSM187258
GSM187257
GSM187256
GSM187255
GSM187254
GSM187253
GSM187252
GSM187251
GSM187250
GSM187249
GSM187248
GSM187247
GSM187246
GSM187245
GSM187244
GSM187243
GSM187242
GSM187241
GSM187240
GSM187239
GSM156793
GSM156792
GSM156791
GSM156790
GSM153929
GSM153928
GSM153927
GSM153926
GSM153925
GSM153924
GSM153923
GSM153922
GSM139902
GSM139900
GSM139899
GSM139898
GSM139897
GSM139895
GSM139894
GSM139887
GSM139886
GSM139885
GSM139884
GSM139880
GSM184153
GSM184152
GSM184151
GSM183519
GSM183518
GSM183516
GSM183515
GSM183514
GSM183513
GSM183512
GSM183511
GSM183510
GSM183509
GSM183508
GSM183507
GSM183506
GSM183505
GSM183504
GSM177130
GSM177129
GSM177128
GSM177127
GSM177126
GSM177125
GSM177124
GSM177123
GSM177122
GSM177121
GSM177120
GSM177119
GSM173451
GSM173450
GSM173449
GSM173448
GSM173447
GSM173446
GSM173445
GSM173444
GSM173443
GSM173442
GSM170940
GSM170931
GSM170930
GSM170923
GSM170911
GSM170899
GSM170897
GSM170896
GSM133953
GSM133952
GSM133951
GSM133950
GSM133949
GSM133948
GSM133947
GSM133945
GSM157393
GSM157392
GSM157391
GSM157390
GSM157389
GSM157388
GSM157387
GSM157386
GSM157385
GSM157384
GSM157383
GSM157382
GSM157381
GSM157380
GSM157379
GSM157378
GSM157377
GSM157376
GSM157375
GSM157374
GSM157373
GSM157372
GSM157371
GSM157370
GSM157369
GSM157368
GSM157367
GSM157366
GSM157365
GSM157364
GSM157363
GSM157362
GSM157361
GSM157360
GSM157359
GSM157358
GSM157357
GSM157356
GSM157355
GSM157354
GSM157353
GSM157352
GSM157351
GSM157350
GSM157349
GSM157348
GSM157347
GSM157346
GSM157345
GSM157344
GSM157343
GSM157342
GSM157341
GSM157340
GSM157339
GSM157338
GSM157337
GSM157336
GSM157335
GSM157334
GSM157333
GSM157332
GSM157331
GSM157330
GSM157329
GSM157328
GSM157327
GSM157326
GSM157325
GSM157324
GSM157323
GSM157322
GSM157321
GSM157319
GSM157318
GSM157317
GSM157316
GSM157315
GSM157314
GSM157312
GSM157311
GSM157310
GSM157309
GSM157307
GSM157306
GSM157305
GSM157304
GSM157303
GSM157301
GSM157300
GSM157299
GSM142897
GSM142896
GSM142895
GSM142894
GSM142893
GSM142892
GSM142891
GSM142890
GSM142889
GSM142888
GSM142887
GSM142886
GSM142885
GSM142884
GSM142883
GSM142882
GSM142881
GSM142880
GSM142879
GSM142878
GSM142877
GSM142876
GSM142875
GSM142874
GSM142873
GSM142872
GSM142871
GSM142870
GSM142869
GSM142868
GSM142867
GSM142866
GSM142865
GSM142864
GSM142863
GSM142862
GSM142861
GSM142860
GSM142859
GSM142858
GSM142857
GSM142856
GSM142855
GSM142854
GSM142853
GSM142852
GSM142851
GSM142850
GSM142849
GSM142848
GSM142847
GSM142846
GSM142845
GSM142844
GSM142843
GSM142842
GSM142841
GSM142840
GSM142839
GSM142838
GSM142837
GSM142836
GSM142835
GSM142834
GSM142833
GSM142832
GSM142831
GSM142830
GSM142829
GSM142828
GSM142827
GSM142826
GSM142825
GSM142824
GSM142823
GSM142822
GSM142821
GSM142820
GSM142819
GSM142818
GSM142817
GSM142816
GSM142815
GSM142814
GSM142813
GSM142812
GSM142811
GSM142810
GSM142809
GSM142808
GSM142807
GSM142806
GSM142805
GSM142804
GSM142803
GSM142802
GSM142801
GSM142800
GSM142799
GSM142798
GSM142793
GSM142792
GSM142790
GSM142789
GSM142788
GSM142787
GSM142786
GSM142785
GSM142784
GSM142781
GSM142780
GSM142779
GSM142778
GSM142777
GSM142776
GSM142775
GSM142774
GSM142773
GSM142772
GSM142769
GSM142768
GSM142767
GSM142766
GSM142765
GSM142764
GSM142763
GSM142762
GSM142761
GSM142760
GSM142759
GSM142758
GSM142757
GSM142756
GSM142755
GSM142754
GSM142753
GSM142752
GSM142751
GSM142750
GSM142740
GSM142739
GSM142738
GSM142737
GSM142736
GSM142735
GSM142734
GSM142733
GSM142732
GSM142731
GSM142730
GSM142729
GSM142728
GSM142727
GSM142726
GSM142725
GSM142724
GSM142723
GSM142721
GSM142698
GSM142697
GSM142696
GSM142695
GSM142694
GSM142693
GSM142692
GSM142691
GSM142690
GSM142689
GSM142688
GSM142687
GSM142675
GSM142674
GSM142673
GSM142672
GSM142671
GSM142670
GSM142669
GSM142668
GSM142667
GSM142666
GSM142665
GSM142664
GSM142663
GSM142662
GSM142661
GSM142658
GSM142657
GSM142656
GSM142655
GSM142654
GSM142653
GSM142652
GSM142651
GSM142650
GSM142649
GSM142648
GSM142647
GSM142646
GSM142645
GSM142644
GSM142643
GSM142642
GSM142641
GSM142640
GSM142639
GSM142638
GSM142637
GSM142636
GSM142635
GSM142634
GSM142633
GSM142632
GSM142631
GSM142630
GSM142629
GSM142628
GSM142627
GSM142626
GSM142625
GSM142624
GSM142623
GSM142622
GSM142621
GSM142620
GSM142619
GSM142618
GSM142617
GSM142616
GSM142615
GSM142614
GSM142613
GSM142612
GSM142611
GSM142610
GSM142609
GSM142608
GSM142606
GSM142605
GSM142604
GSM142603
GSM142602
GSM142601
GSM142600
GSM142599
GSM142598
GSM142597
GSM142596
GSM142594
GSM142593
GSM142592
GSM142591
GSM133993
GSM133992
GSM133991
GSM133989
GSM133988
GSM133987
GSM133986
GSM133985
GSM133984
GSM133983
GSM133981
GSM133980
GSM133979
GSM133978
GSM133977
GSM133976
GSM133975
GSM133974
GSM133973
GSM133971
GSM133970
GSM133969
GSM133968
GSM133412
GSM133411
GSM133410
GSM133409
GSM131216
GSM131215
GSM131214
GSM131213
GSM131212
GSM131211
GSM131210
GSM131209
GSM131208
GSM131207
GSM131206
GSM131205
GSM131204
GSM131203
GSM131202
GSM131201
GSM131200
GSM131199
GSM131198
GSM131197
GSM131196
GSM131195
GSM131194
GSM131193
GSM131192
GSM131191
GSM131190
GSM131189
GSM131188
GSM131187
GSM131186
GSM131185
GSM131184
GSM131183
GSM131182
GSM131181
GSM131180
GSM131179
GSM131178
GSM131177
GSM131176
GSM131175
GSM131174
GSM131173
GSM131172
GSM131171
GSM131170
GSM131169
GSM142907
GSM142906
GSM142905
GSM142904
GSM142903
GSM142902
GSM142771
GSM142770
GSM142720
GSM142719
GSM142718
GSM142717
GSM142716
GSM142715
GSM142714
GSM142713
GSM142712
GSM142711
GSM142710
GSM142709
GSM142708
GSM142707
GSM142706
GSM142705
GSM142704
GSM142703
GSM142590
GSM142589
GSM142588
GSM142587
GSM142586
GSM142585
GSM134465
GSM134464
GSM134463
GSM134462
GSM134459
GSM134458
GSM134457
GSM134456
GSM134455
GSM134454
GSM134452
GSM134451
GSM134450
GSM134449
GSM134448
GSM134447
GSM134446
GSM134445
GSM134444
GSM134443
GSM134441
GSM996956
GSM996955
GSM953760
GSM953759
GSM953758
GSM953757
GSM953756
GSM953755
GSM978008
GSM978007
GSM978006
GSM978005
GSM978004
GSM978003
GSM984541
GSM984540
GSM984539
GSM984538
GSM984537
GSM984536
GSM984535
GSM984534
GSM984533
GSM984532
GSM984531
GSM984530
GSM984529
GSM984528
GSM984527
GSM984526
GSM984525
GSM984524
GSM984523
GSM984522
GSM984521
GSM984520
GSM984519
GSM984518
GSM768267
GSM768266
GSM768265
GSM768264
GSM768263
GSM768262
GSM768261
GSM768260
GSM768259
GSM768258
GSM768257
GSM768256
GSM768255
GSM768254
GSM768253
GSM768252
GSM768251
GSM768250
GSM768249
GSM768248
GSM768247
GSM768246
GSM768245
GSM768244
GSM768243
GSM768242
GSM768241
GSM768240
GSM768239
GSM768238
GSM901194
GSM901193
GSM901192
GSM901191
GSM901190
GSM901189
GSM901188
GSM901187
GSM901186
GSM901185
GSM901184
GSM901183
GSM731494
GSM731489
GSM731486
GSM731485
GSM731484
GSM731481
GSM731476
GSM731473
GSM731466
GSM731465
GSM731464
GSM731463
GSM731462
GSM731461
GSM731452
GSM731451
GSM731310
GSM731309
GSM731308
GSM731307
GSM134440
GSM134439
GSM134438
GSM134437
GSM134436
GSM134435
GSM134434
GSM134433
GSM134432
GSM134431
GSM134430
GSM134429
GSM134428
GSM134427
GSM134426
GSM134425
GSM134424
GSM134423
GSM134422
GSM134421
GSM134419
GSM134418
GSM134417
GSM134416
GSM134415
GSM134414
GSM134413
GSM134412
GSM134411
GSM134410
GSM134409
GSM134408
GSM134406
GSM134405
GSM134404
GSM134403
GSM134402
GSM134401
GSM134400
GSM134399
GSM134398
GSM134397
GSM134396
GSM134395
GSM134394
GSM134392
GSM134391
GSM134390
GSM134389
GSM134388
GSM134387
GSM134386
GSM134385
GSM134384
GSM134383
GSM134382
GSM134381
GSM134380
GSM134379
GSM134378
GSM134377
GSM134376
GSM134375
GSM134374
GSM134373
GSM134371
GSM134370
GSM134369
GSM134367
GSM134366
GSM134365
GSM134364
GSM134363
GSM134362
GSM134361
GSM134360
GSM134359
GSM134358
GSM134357
GSM134355
GSM134354
GSM134353
GSM134352
GSM134351
GSM134350
GSM134349
GSM134348
GSM134347
GSM134346
GSM134345
GSM134344
GSM134343
GSM134342
GSM134341
GSM134340
GSM134316
GSM134315
GSM134314
GSM134313
GSM134312
GSM134311
GSM134310
GSM134309
GSM134308
GSM134307
GSM134306
GSM134305
GSM134304
GSM134303
GSM134302
GSM134301
GSM134300
GSM134299
GSM134208
GSM134206
GSM134204
GSM134202
GSM133967
GSM133966
GSM133965
GSM133964
GSM133963
GSM133962
GSM133961
GSM133960
GSM133959
GSM133958
GSM133957
GSM133944
GSM133943
GSM133942
GSM133940
GSM133939
GSM133938
GSM133937
GSM133936
GSM133935
GSM133934
GSM133933
GSM133932
GSM133931
GSM133930
GSM133929
GSM133928
GSM133927
GSM133926
GSM133925
GSM133924
GSM133923
GSM133922
GSM133921
GSM133920
GSM133919
GSM133918
GSM133916
GSM133915
GSM133914
GSM133913
GSM133912
GSM133911
GSM133910
GSM133909
GSM133907
GSM133906
GSM133905
GSM133904
GSM133903
GSM133902
GSM133901
GSM133900
GSM133899
GSM133898
GSM133897
GSM133896
GSM133894
GSM133893
GSM133892
GSM133891
GSM133888
GSM133885
GSM133884
GSM133883
GSM133882
GSM133869
GSM133868
GSM133867
GSM133866
GSM133865
GSM133864
GSM133863
GSM133862
GSM133861
GSM133860
GSM133859
GSM133858
GSM133857
GSM133856
GSM133855
GSM133854
GSM133853
GSM133852
GSM133851
GSM133850
GSM133849
GSM133848
GSM133847
GSM133846
GSM133845
GSM133844
GSM133843
GSM133842
GSM133841
GSM133840
GSM133839
GSM133838
GSM133837
GSM133836
GSM133835
GSM133834
GSM133833
GSM133832
GSM133831
GSM133830
GSM133829
GSM133828
GSM133827
GSM133826
GSM133825
GSM133824
GSM133823
GSM133822
GSM133821
GSM133820
GSM133819
GSM133818
GSM133817
GSM133816
GSM133815
GSM133814
GSM133813
GSM133812
GSM133811
GSM133810
GSM133809
GSM133808
GSM133807
GSM133806
GSM133805
GSM133804
GSM133803
GSM133802
GSM133801
GSM133800
GSM133799
GSM133798
GSM133797
GSM133796
GSM133795
GSM133794
GSM133787
GSM133786
GSM133785
GSM133784
GSM133783
GSM133782
GSM133781
GSM133780
GSM133779
GSM133778
GSM133777
GSM133776
GSM133775
GSM133774
GSM133773
GSM133772
GSM133771
GSM133770
GSM133769
GSM133768
GSM133767
GSM133766
GSM133765
GSM133764
GSM133763
GSM133762
GSM133761
GSM133760
GSM133759
GSM133758
GSM133757
GSM133756
GSM133755
GSM133754
GSM133753
GSM133752
GSM133751
GSM133750
GSM133749
GSM133748
GSM133747
GSM133746
GSM133745
GSM133744
GSM133743
GSM133742
GSM133741
GSM133740
GSM133739
GSM133738
GSM133737
GSM133736
GSM133735
GSM133734
GSM133733
GSM133732
GSM133731
GSM133730
GSM133729
GSM133728
GSM133727
GSM133726
GSM133725
GSM133724
GSM133723
GSM133722
GSM133721
GSM133720
GSM133719
GSM133718
GSM133717
GSM133716
GSM133715
GSM133714
GSM133713
GSM133712
GSM133711
GSM133710
GSM133709
GSM133708
GSM133707
GSM133706
GSM133705
GSM133408
GSM133407
GSM133406
GSM133405
GSM133404
GSM133403
GSM133402
GSM133401
GSM133400
GSM133399
GSM133322
GSM133321
GSM133320
GSM133319
GSM133318
GSM133317
GSM133316
GSM133315
GSM133314
GSM133313
GSM133312
GSM133311
GSM133310
GSM133309
GSM133308
GSM133307
GSM133306
GSM133305
GSM133304
GSM133303
GSM133302
GSM133301
GSM133300
GSM133299
GSM133298
GSM133297
GSM133296
GSM133295
GSM133294
GSM133293
GSM133292
GSM133291
GSM133290
GSM133289
GSM133288
GSM133287
GSM133286
GSM133285
GSM133284
GSM133283
GSM133282
GSM133281
GSM133280
GSM133279
GSM133278
GSM133277
GSM133276
GSM133275
GSM133274
GSM133273
GSM133272
GSM133271
GSM133270
GSM133269
GSM133268
GSM133267
GSM133266
GSM133265
GSM133264
GSM133263
GSM133262
GSM133261
GSM133260
GSM133259
GSM133258
GSM133257
GSM133256
GSM133255
GSM133254
GSM133253
GSM133252
GSM133251
GSM133142
GSM133141
GSM133140
GSM133139
GSM133138
GSM133137
GSM133136
GSM133135
GSM133134
GSM133133
GSM133132
GSM133131
GSM133130
GSM133129
GSM133128
GSM133127
GSM133126
GSM133125
GSM133124
GSM133123
GSM133122
GSM133121
GSM133120
GSM133119
GSM133118
GSM133117
GSM133116
GSM133115
GSM133114
GSM133113
GSM133112
GSM133111
GSM133110
GSM133109
GSM133108
GSM133107
GSM133106
GSM133105
GSM133104
GSM133103
GSM133102
GSM133101
GSM133100
GSM133099
GSM133098
GSM133097
GSM133096
GSM133095
GSM133094
GSM133093
GSM133092
GSM133091
GSM133090
GSM133089
GSM133088
GSM133087
GSM133086
GSM133085
GSM133084
GSM133083
GSM133082
GSM133081
GSM133080
GSM133079
GSM133078
GSM133077
GSM133076
GSM133075
GSM133074
GSM133073
GSM133072
GSM133071
GSM133070
GSM133069
GSM133068
GSM133067
GSM133066
GSM133065
GSM133064
GSM133063
GSM133062
GSM133061
GSM133060
GSM133059
GSM133058
GSM133057
GSM133056
GSM133055
GSM133054
GSM133053
GSM133052
GSM133051
GSM133050
GSM133049
GSM133048
GSM133047
GSM133046
GSM133045
GSM133044
GSM133043
GSM133042
GSM133041
GSM133040
GSM133039
GSM133038
GSM133037
GSM133036
GSM133035
GSM133034
GSM133033
GSM133032
GSM133031
GSM133030
GSM133029
GSM133028
GSM133027
GSM133026
GSM133025
GSM131849
GSM131848
GSM131847
GSM131846
GSM131845
GSM131844
GSM131842
GSM131841
GSM131836
GSM131835
GSM131834
GSM131833
GSM131832
GSM131831
GSM131830
GSM131829
GSM131828
GSM131827
GSM131826
GSM131825
GSM131824
GSM131823
GSM131822
GSM131821
GSM131820
GSM131819
GSM131818
GSM131817
GSM131816
GSM131815
GSM131814
GSM131813
GSM131812
GSM131811
GSM131810
GSM131809
GSM131808
GSM131807
GSM131806
GSM131805
GSM131804
GSM131803
GSM131802
GSM131801
GSM131800
GSM131799
GSM131798
GSM131797
GSM131796
GSM131795
GSM131794
GSM131793
GSM131792
GSM131791
GSM131790
GSM131789
GSM131788
GSM131787
GSM131786
GSM131785
GSM131784
GSM131783
GSM131782
GSM131781
GSM131780
GSM131779
GSM131778
GSM131777
GSM131776
GSM131775
GSM131774
GSM131773
GSM131772
GSM131771
GSM131770
GSM131769
GSM131768
GSM131767
GSM131766
GSM131765
GSM131764
GSM131763
GSM131762
GSM131761
GSM131760
GSM131759
GSM131758
GSM131757
GSM131756
GSM131755
GSM131754
GSM131753
GSM131752
GSM131751
GSM131750
GSM131749
GSM131708
GSM131707
GSM131706
GSM131705
GSM131704
GSM131703
GSM131702
GSM131701
GSM131700
GSM131699
GSM131698
GSM131697
GSM131696
GSM131695
GSM131694
GSM131693
GSM131692
GSM131691
GSM131690
GSM131689
GSM131688
GSM131687
GSM131686
GSM131685
GSM131684
GSM131683
GSM131682
GSM131681
GSM131680
GSM131679
GSM131678
GSM131677
GSM131676
GSM131675
GSM131674
GSM131673
GSM131672
GSM131671
GSM131670
GSM131669
GSM131668
GSM131667
GSM131666
GSM131665
GSM131664
GSM131663
GSM131662
GSM131661
GSM131660
GSM131659
GSM131658
GSM131657
GSM131656
GSM131655
GSM131654
GSM131653
GSM131652
GSM131651
GSM131650
GSM131649
GSM131648
GSM131647
GSM131646
GSM131645
GSM131644
GSM131643
GSM131641
GSM131640
GSM131639
GSM131638
GSM131637
GSM131636
GSM131635
GSM131634
GSM131633
GSM131632
GSM131631
GSM131630
GSM131629
GSM131628
GSM131627
GSM131626
GSM131625
GSM131624
GSM131623
GSM131622
GSM131621
GSM131620
GSM131619
GSM131618
GSM131617
GSM131616
GSM131615
GSM131614
GSM131613
GSM131612
GSM131611
GSM131610
GSM131609
GSM131608
GSM131607
GSM131606
GSM131605
GSM131604
GSM131603
GSM131602
GSM131601
GSM131600
GSM131599
GSM131598
GSM131597
GSM131596
GSM131595
GSM131594
GSM131593
GSM131592
GSM131591
GSM131590
GSM131589
GSM131588
GSM131587
GSM131586
GSM131585
GSM131584
GSM131583
GSM131582
GSM131581
GSM131580
GSM131579
GSM131578
GSM131577
GSM131576
GSM131575
GSM131574
GSM131573
GSM131572
GSM131571
GSM131570
GSM131569
GSM131568
GSM131567
GSM131566
GSM131565
GSM131564
GSM131563
GSM131562
GSM131561
GSM131560
GSM131559
GSM131558
GSM131557
GSM131556
GSM131555
GSM131554
GSM131553
GSM131552
GSM131551
GSM131550
GSM131549
GSM131548
GSM131547
GSM131546
GSM131545
GSM131544
GSM131543
GSM131542
GSM131541
GSM131540
GSM131539
GSM131538
GSM131537
GSM131536
GSM131535
GSM131534
GSM131533
GSM131532
GSM131531
GSM131530
GSM131529
GSM131528
GSM131527
GSM131526
GSM131525
GSM131524
GSM131523
GSM131522
GSM131521
GSM131520
GSM131519
GSM131518
GSM131517
GSM131516
GSM131515
GSM131514
GSM131513
GSM131512
GSM131511
GSM131510
GSM131509
GSM131508
GSM131507
GSM131506
GSM131505
GSM131504
GSM131503
GSM131502
GSM131501
GSM131500
GSM131499
GSM131498
GSM131497
GSM131496
GSM131495
GSM131494
GSM131493
GSM131492
GSM131491
GSM131490
GSM131489
GSM131488
GSM131487
GSM131486
GSM131485
GSM131484
GSM131483
GSM131482
GSM131481
GSM131480
GSM131479
GSM131478
GSM131477
GSM131476
GSM131475
GSM131474
GSM131473
GSM131472
GSM131471
GSM131470
GSM131469
GSM131468
GSM131467
GSM131466
GSM131465
GSM131464
GSM131463
GSM131462
GSM131461
GSM131460
GSM131459
GSM131458
GSM131457
GSM131456
GSM131455
GSM131454
GSM131453
GSM131452
GSM131451
GSM131450
GSM131449
GSM131448
GSM131447
GSM131446
GSM131445
GSM131444
GSM131443
GSM131442
GSM131441
GSM131440
GSM131439
GSM131438
GSM131437
GSM131436
GSM131435
GSM131434
GSM131433
GSM131432
GSM131431
GSM131430
GSM131429
GSM131428
GSM131427
GSM131426
GSM131425
GSM131424
GSM131423
GSM131422
GSM131421
GSM131420
GSM131419
GSM131418
GSM131417
GSM131416
GSM131415
GSM131414
GSM131413
GSM131412
GSM131411
GSM131410
GSM131409
GSM131408
GSM131407
GSM131406
GSM131405
GSM131404
GSM131403
GSM131402
GSM131401
GSM131400
GSM131399
GSM131398
GSM131397
GSM131396
GSM131395
GSM131394
GSM131393
GSM131392
GSM131391
GSM131390
GSM131389
GSM131388
GSM131387
GSM131386
GSM131385
GSM131384
GSM131383
GSM131382
GSM131381
GSM131380
GSM131379
GSM131378
GSM131377
GSM131376
GSM131375
GSM131374
GSM131373
GSM131372
GSM131371
GSM131370
GSM131369
GSM131368
GSM131367
GSM131366
GSM131365
GSM131364
GSM131363
GSM131362
GSM131361
GSM131360
GSM131359
GSM131358
GSM131357
GSM131356
GSM131355
GSM131354
GSM131353
GSM131352
GSM131351
GSM131350
GSM131349
GSM131348
GSM131347
GSM131346
GSM731306
GSM731305
GSM731304
GSM731303
GSM731302
GSM731301
GSM731298
GSM731297
GSM731296
GSM731295
GSM967264
GSM967263
GSM967262
GSM967261
GSM967260
GSM967259
GSM967258
GSM967257
GSM967256
GSM967255
GSM967254
GSM967253
GSM967252
GSM967251
GSM967250
GSM967249
GSM967248
GSM967247
GSM967246
GSM967245
GSM967244
GSM967243
GSM967242
GSM967241
GSM967240
GSM967239
GSM967238
GSM967237
GSM967236
GSM967235
GSM967234
GSM967233
GSM967232
GSM967231
GSM967230
GSM967229
GSM967228
GSM967227
GSM967226
GSM967225
GSM967224
GSM967223
GSM967222
GSM967221
GSM967220
GSM967219
GSM967218
GSM967217
GSM967216
GSM967215
GSM967214
GSM967213
GSM967212
GSM967211
GSM967210
GSM967209
GSM967208
GSM967207
GSM967206
GSM967205
GSM967203
GSM967202
GSM967201
GSM967200
GSM967199
GSM967198
GSM967197
GSM967196
GSM967195
GSM967194
GSM967193
GSM967192
GSM967191
GSM967190
GSM967189
GSM967188
GSM967187
GSM967186
GSM967185
GSM967184
GSM967183
GSM967182
GSM967181
GSM967180
GSM967179
GSM967178
GSM967177
GSM967176
GSM967175
GSM967174
GSM131345
GSM131344
GSM131343
GSM131342
GSM131341
GSM131340
GSM131339
GSM131338
GSM131337
GSM131336
GSM131335
GSM131334
GSM131333
GSM131332
GSM131331
GSM131330
GSM131329
GSM131328
GSM131327
GSM131326
GSM131325
GSM131324
GSM131323
GSM131322
GSM131321
GSM131320
GSM131319
GSM131318
GSM131317
GSM131316
GSM131315
GSM131314
GSM131313
GSM131312
GSM131311
GSM131310
GSM131309
GSM131308
GSM131307
GSM131306
GSM131305
GSM131304
GSM131303
GSM131302
GSM131301
GSM131300
GSM131299
GSM131298
GSM131297
GSM131296
GSM131295
GSM131294
GSM131293
GSM131292
GSM131291
GSM131290
GSM131289
GSM131288
GSM131287
GSM131286
GSM131285
GSM131284
GSM131283
GSM131282
GSM131281
GSM131280
GSM131279
GSM131278
GSM131277
GSM131276
GSM131275
GSM131274
GSM131273
GSM131272
GSM131271
GSM131270
GSM131269
GSM131268
GSM131267
GSM131266
GSM131265
GSM131264
GSM131263
GSM131262
GSM131261
GSM131260
GSM131259
GSM131258
GSM131257
GSM131256
GSM131255
GSM131254
GSM131253
GSM131252
GSM131251
GSM131250
GSM131249
GSM131248
GSM131247
GSM131246
GSM131245
GSM131244
GSM131243
GSM131242
GSM131241
GSM131240
GSM131239
GSM131238
GSM131237
GSM131236
GSM131235
GSM131234
GSM131233
GSM131232
GSM131231
GSM131230
GSM131229
GSM131228
GSM131227
GSM131226
GSM131225
GSM131224
GSM131223
GSM131222
GSM131221
GSM131220
GSM131219
GSM131218
GSM131217
GSM131168
GSM131167
GSM131166
GSM131165
GSM131164
GSM131163
GSM131162
GSM131161
GSM131160
GSM131159
GSM131158
GSM131157
GSM131156
GSM131155
GSM131154
GSM131153
GSM131152
GSM131151
GSM131150
GSM131149
GSM131148
GSM131147
GSM131146
GSM131145
GSM131144
GSM131143
GSM131142
GSM131141
GSM131140
GSM131139
GSM131138
GSM131137
GSM131136
GSM131135
GSM131134
GSM131133
GSM131132
GSM131131
GSM131130
GSM131129
GSM131128
GSM131127
GSM131126
GSM131125
GSM131124
GSM131123
GSM131122
GSM131121
GSM131120
GSM131119
GSM131118
GSM131117
GSM131116
GSM131115
GSM131114
GSM131113
GSM131112
GSM131111
GSM131110
GSM131109
GSM131108
GSM131107
GSM131106
GSM131105
GSM131104
GSM131103
GSM131102
GSM131101
GSM131099
GSM131098
GSM131097
GSM131096
GSM131095
GSM131094
GSM131093
GSM131092
GSM131091
GSM131090
GSM131089
GSM131088
GSM131086
GSM131085
GSM131084
GSM131083
GSM131082
GSM131081
GSM131080
GSM131078
GSM131077
GSM131076
GSM131075
GSM131074
GSM131073
GSM131072
GSM131071
GSM131070
GSM131069
GSM131068
GSM131067
GSM131066
GSM131065
GSM131064
GSM131063
GSM131062
GSM131061
GSM131060
GSM128651
GSM128649
GSM128648
GSM147966
GSM147965
GSM147964
GSM147963
GSM109124
GSM109123
GSM109122
GSM109121
GSM109120
GSM109119
GSM109118
GSM109117
GSM109116
GSM109115
GSM109114
GSM109113
GSM109112
GSM109111
GSM109110
GSM109109
GSM109108
GSM109107
GSM151705
GSM151704
GSM151703
GSM151702
GSM151701
GSM151700
GSM151699
GSM151698
GSM151697
GSM151696
GSM151695
GSM151694
GSM149817
GSM149816
GSM149815
GSM149814
GSM143310
GSM143309
GSM143308
GSM143307
GSM143306
GSM143305
GSM143304
GSM143303
GSM143302
GSM143301
GSM143300
GSM143299
GSM143298
GSM134783
GSM134782
GSM134780
GSM134779
GSM134777
GSM134775
GSM134774
GSM134772
GSM134771
GSM134769
GSM134768
GSM134767
GSM134520
GSM134519
GSM134518
GSM134517
GSM134516
GSM134515
GSM134514
GSM134513
GSM128882
GSM128881
GSM128880
GSM128879
GSM128878
GSM128877
GSM128812
GSM128811
GSM128810
GSM128809
GSM128808
GSM128807
GSM128806
GSM128805
GSM128804
GSM128803
GSM128802
GSM128801
GSM128800
GSM128799
GSM128798
GSM128797
GSM128796
GSM128795
GSM128794
GSM128793
GSM128792
GSM128791
GSM128790
GSM128789
GSM128788
GSM128787
GSM128786
GSM128785
GSM128784
GSM128783
GSM128782
GSM128781
GSM128780
GSM128779
GSM128778
GSM128776
GSM128775
GSM128768
GSM128767
GSM128766
GSM128765
GSM128764
GSM128763
GSM128762
GSM128761
GSM128760
GSM128759
GSM128758
GSM128757
GSM128756
GSM128755
GSM128754
GSM128753
GSM128752
GSM128751
GSM128750
GSM128749
GSM128748
GSM128747
GSM128746
GSM128745
GSM128734
GSM128733
GSM128732
GSM128731
GSM128730
GSM128729
GSM128728
GSM128727
GSM128726
GSM128725
GSM128724
GSM128723
GSM128722
GSM128721
GSM128720
GSM128719
GSM128718
GSM128717
GSM128716
GSM128715
GSM128714
GSM128713
GSM128712
GSM128711
GSM128710
GSM128709
GSM128708
GSM128707
GSM128706
GSM128705
GSM128704
GSM128703
GSM128702
GSM128701
GSM128700
GSM128699
GSM128698
GSM128697
GSM128696
GSM128695
GSM128694
GSM128693
GSM128692
GSM128691
GSM128690
GSM128689
GSM128688
GSM128687
GSM128686
GSM128685
GSM128684
GSM128683
GSM128682
GSM128681
GSM128680
GSM128679
GSM128678
GSM128677
GSM128676
GSM128675
GSM128674
GSM128673
GSM128672
GSM128671
GSM128670
GSM128669
GSM128667
GSM128666
GSM128665
GSM128664
GSM128663
GSM128662
GSM128661
GSM128660
GSM128659
GSM128658
GSM128657
GSM128655
GSM128654
GSM128653
GSM128652
GSM128650
GSM125257
GSM125256
GSM125255
GSM125254
GSM125253
GSM125252
GSM107712
GSM107711
GSM107670
GSM105206
GSM105205
GSM105204
GSM105203
GSM106973
GSM106970
GSM106969
GSM106967
GSM106966
GSM106934
GSM106924
GSM106923
GSM106922
GSM106921
GSM106920
GSM106919
GSM106917
GSM106916
GSM106915
GSM106914
GSM106913
GSM106912
GSM106911
GSM106910
GSM106909
GSM106908
GSM106907
GSM106833
GSM106828
GSM106827
GSM106825
GSM94014
GSM94013
GSM94012
GSM94011
GSM94010
GSM94009
GSM94008
GSM94007
GSM94006
GSM90299
GSM90298
GSM90297
GSM90296
GSM90295
GSM90294
GSM90293
GSM90292
GSM85539
GSM85538
GSM77188
GSM77187
GSM77186
GSM77185
GSM77184
GSM77183
GSM77182
GSM77181
GSM77180
GSM77179
GSM77178
GSM77177
GSM77176
GSM77175
GSM77072
GSM77071
GSM77070
GSM77069
GSM77068
GSM77067
GSM77066
GSM77065
GSM77064
GSM77063
GSM77062
GSM77061
GSM77060
GSM77059
GSM77058
GSM77057
GSM77056
GSM77055
GSM9619
GSM9618
GSM9617
GSM9616
GSM9615
GSM9614
GSM9613
GSM9612
GSM9611
GSM9610
GSM9609
GSM9608
GSM9607
GSM9606
GSM9605
GSM9603
GSM9602
GSM9601
GSM9600
GSM9599
GSM9598
GSM9597
GSM9596
GSM9595
GSM75521
GSM75520
GSM75519
GSM75518
GSM75517
GSM75516
GSM75515
GSM75514
GSM75513
GSM75512
GSM75511
GSM75510
GSM75509
GSM75508
GSM9634
GSM9633
GSM9632
GSM9631
GSM9630
GSM9629
GSM9628
GSM9627
GSM9626
GSM9625
GSM9624
GSM9620
GSM9594
GSM9593
GSM9592
GSM9591
GSM9590
GSM9589
GSM9588
GSM9587
GSM9586
GSM9585
GSM9584
GSM9583
GSM9582
GSM9581
GSM9580
GSM9579
GSM9578
GSM9577
GSM9576
GSM9575
GSM9574
GSM9573
GSM9572
GSM9571
GSM74909
GSM74908
GSM74907
GSM74906
GSM74905
GSM74904
GSM74903
GSM74902
GSM74901
GSM74900
GSM74899
GSM74898
GSM74897
GSM74896
GSM74895
GSM74894
GSM39214
GSM39213
GSM39212
GSM39211
GSM39210
GSM39209
GSM39208
GSM39207
GSM39206
GSM39205
GSM39204
GSM39203
GSM39202
GSM39201
GSM39200
GSM39199
GSM39198
GSM39197
GSM39196
GSM39195
GSM39194
GSM39193
GSM39192
GSM39191
GSM67112
GSM67110
GSM67087
GSM67086
GSM67084
GSM67083
GSM67082
GSM67081
GSM67080
GSM67079
GSM67078
GSM62705
GSM62704
GSM62703
GSM62702
GSM62701
GSM62700
GSM62699
GSM62698
GSM62697
GSM62696
GSM62695
GSM62694
GSM62693
GSM62692
GSM62691
GSM62690
GSM62689
GSM62688
GSM62687
GSM48130
GSM48129
GSM48128
GSM48127
GSM48126
GSM48125
GSM48124
GSM48123
GSM48122
GSM40555
GSM40554
GSM40553
GSM40552
GSM47054
GSM47053
GSM47052
GSM47051
GSM47050
GSM47049
GSM47048
GSM47047
GSM47046
GSM47045
GSM47044
GSM47043
GSM47042
GSM47041
GSM47040
GSM47039
GSM47038
GSM47037
GSM47036
GSM47035
GSM47034
GSM47033
GSM47032
GSM47031
GSM47030
GSM47029
GSM47028
GSM47027
GSM47026
GSM47025
GSM47024
GSM47023
GSM47022
GSM47021
GSM47020
GSM47019
GSM47018
GSM47017
GSM47016
GSM47015
GSM47014
GSM47013
GSM47012
GSM47011
GSM45278
GSM45231
GSM45209
GSM45208
GSM10484
GSM10483
GSM10482
GSM10481
GSM10480
GSM10479
GSM10478
GSM10477
GSM38671
GSM38670
GSM38669
GSM38668
GSM38618
GSM38617
GSM38616
GSM38615
GSM38614
GSM38613
GSM27366
GSM27365
GSM27364
GSM27363
GSM27362
GSM27361
GSM27360
GSM27359
GSM10458
GSM10457
GSM10456
GSM10454
GSM10453
GSM10451
GSM10449
GSM10448
GSM10446
GSM10445
GSM10442
GSM10441
GSM25878
GSM25877
GSM25876
GSM25875
GSM25874
GSM25873
GSM25872
GSM25871
GSM25870
GSM25869
GSM25868
GSM25867
GSM25866
GSM25865
GSM25864
GSM25863
GSM25862
GSM25861
GSM25860
GSM25859
GSM25858
GSM13793
GSM13792
GSM13791
GSM13789
GSM13785
GSM13784
GSM13783
GSM13782
GSM13781
GSM13780
GSM13779
GSM13778
GSM6584
GSM6583
GSM6582
GSM6581
GSM6580
GSM6579
GSM6578
GSM6577
GSM6576
GSM6575
GSM6574
GSM6573
GSM6572
GSM6571
GSM6544
GSM6227
GSM967173
GSM967172
GSM967171
GSM967170
GSM967169
GSM967168
GSM967167
GSM967166
GSM967165
GSM967164
GSM967163
GSM967162
GSM967161
GSM967160
GSM967159
GSM967158
GSM967157
GSM967156
GSM967155
GSM967154
GSM967153
GSM967152
GSM967151
GSM967150
GSM967149
GSM967148
GSM967147
GSM967146
GSM967145
GSM967144
GSM967143
GSM967142
GSM967141
GSM967140
GSM967139
GSM967138
GSM967137
GSM967136
GSM967135
GSM967134
GSM967133
GSM967132
GSM877113
GSM877112
GSM877111
GSM877110
GSM877109
GSM877108
GSM877107
GSM877106
GSM877105
GSM735255
GSM735254
GSM735252
GSM735251
GSM735250
GSM735249
GSM735248
GSM735247
GSM735246
GSM735245
GSM735244
GSM735243
GSM735242
GSM735241
GSM735240
GSM735239
GSM735238
GSM897133
GSM897132
GSM897131
GSM897130
GSM897129
GSM897128
GSM897127
GSM897126
GSM897125
GSM952987
GSM952986
GSM952985
GSM952984
GSM952983
GSM952982
GSM952981
GSM952980
GSM952979
GSM952978
GSM952977
GSM952976
GSM835825
GSM835824
GSM835823
GSM835822
GSM835821
GSM835820
GSM835819
GSM835818
GSM835817
GSM835816
GSM835815